Place,Name,Sex,BirthDate,Equipment,Division,BodyweightKg,WeightClassKg,Squat1Kg,Squat2Kg,Squat3Kg,Best3SquatKg,Bench1Kg,Bench2Kg,Bench3Kg,Best3BenchKg,Deadlift1Kg,Deadlift2Kg,Deadlift3Kg,Best3DeadliftKg,TotalKg,Event
1,Chloe Shemmans,F,2003-12-12,Raw,F_JR_BPU,45,48,-70,70,-75,70,37.5,40,-42.5,40,70,72.5,77.5,77.5,187.5,SBD
1,Rebecca Wilson #1,F,1976-08-12,Raw,F_MR_2_ABPU,81.8,82.5,80,85,-90,85,40,42.5,45,45,95,105,115,115,245,SBD
1,Laura Mitchell,F,1967-01-29,Raw,F_MR_4_ABPU,63.9,67.5,65,70,75,75,35,37.5,-40,37.5,90,97.5,102.5,102.5,215,SBD
1,Jennifer Harris #4,F,1962-05-13,Raw,F_MR_5_BPU,81.7,82.5,75,-80,80,80,40,45,-47.5,45,105,110,115,115,240,SBD
1,Catherine Duffy,F,1958-11-05,Raw,F_MR_6_ABPU,59.2,60,80,85,90,90,47.5,-52.5,-52.5,47.5,100,110,115,115,252.5,SBD
1,Jessica Crammond,F,1994-10-13,Raw,F_OR_ABPU,79.5,82.5,90,95,100,100,45,47.5,50,50,115,125,130,130,280,SBD
1,Sadie Sivers,F,2008-02-12,Raw,F_TR_1_BPU,51.1,52,65,67.5,70,70,32.5,37.5,40,40,70,77.5,-87.5,77.5,187.5,SBD
1,Alexandra Koskie,F,2002-09-03,Raw,F_JCR_ABPU,72.4,75,75,82.5,90,90,45,50,-52.5,50,115,122.5,127.5,127.5,267.5,SBD
1,Jessica Van Der Knaap,F,2001-07-01,Raw,F_JCR_ABPU,88.4,90,-115,120,130,130,70,75,-80,75,175,190,-200,190,395,SBD
1,Jemma Hatcher,F,1982-06-19,Raw,F_MCR_1_ABPU,67.1,67.5,82.5,85,87.5,87.5,40,42.5,45,45,100,110,-115,110,242.5,SBD
1,Nicky Payne,F,1975-01-31,Wraps,F_MCR_2_BPU,72.9,75,-120,120,130,130,50,55,-57.5,55,130,137.5,-142.5,137.5,322.5,SBD
DQ,Lamorna Bardwell,F,1996-02-13,Wraps,F_OCR_ABPU,50.4,52,-125,-125,-125,,-65,,,,,,,,,SBD
1,Maisie MacCormack,F,1990-08-27,Wraps,F_OCR_ABPU,57.5,60,130,-137.5,137.5,137.5,75,-80,-80,75,150,160,-162.5,160,372.5,SBD
2,Hollie Pearson,F,1988-12-29,Wraps,F_OCR_ABPU,59.8,60,105,112.5,120,120,50,55,60,60,120,130,140,140,320,SBD
1,Verity Page,F,1989-12-08,Wraps,F_OCR_ABPU,74.5,75,-125,125,135,135,65,70,-72.5,70,140,150,160,160,365,SBD
DQ,Kayleigh Jezzard,F,2004-04-25,Wraps,F_TCR_3_ABPU,57.9,60,100,105,107.5,107.5,45,-50,50,50,-100,-100,-100,,,SBD
1,Jack Packham,M,2003-06-06,Raw,M_JR_BPU,109.1,110,-220,230,235,235,145,155,-160,155,240,255,-260,255,645,SBD
1,Alastair Griggs,M,1998-06-16,Raw,M_OR_ABPU,88,90,162.5,172.5,180,180,120,127.5,135,135,210,220,235,235,550,SBD
1,Ryan Faldo,M,1984-04-29,Raw,M_OR_ABPU,108.25,110,215,230,240,240,145,152.5,-157.5,152.5,225,245,-260,245,637.5,SBD
1,Matthew Prior,M,2000-07-26,Raw,M_JCR_ABPU,95.9,100,-150,-150,150,150,90,97.5,-100,97.5,180,195,202.5,202.5,450,SBD
1,Liam Tomsett,M,1981-04-06,Raw,M_MCR_1_ABPU,95,100,170,175,-180,175,102.5,105,-107.5,105,200,205,-210,205,485,SBD
1,Lester Kellaway,M,1978-09-04,Wraps,M_MCR_2_BPU,109.6,110,220,235,240,240,125,130,-135,130,265,280,,280,650,SBD
1,Stephen Alsop,M,1970-11-25,Wraps,M_MCR_3_BPU,151,140+,220,240,-255,240,165,175,180,180,220,240,-250,240,660,SBD
1,Kevin Payne #2,M,1957-06-07,Raw,M_MR_6_BPU,75.8,82.5,-120,120,-130,120,85,90,95,95,185,-195,-195,185,400,SBD
1,Harley Khalil,M,1992-10-17,Wraps,M_OCR_BPU,94.6,100,240,-260,260,260,120,-140,140,140,-250,-250,250,250,650,SBD
1,Matthew Lynch #6,M,1997-01-20,Raw,M_OCR_BPU,106.6,110,250,270,280,280,150,165,170,170,290,315,-330,315,765,SBD
1,David Morton,M,1989-02-09,Wraps,M_OCR_BPU,110.2,125,180,200,210,210,140,150,155,155,260,275,280,280,645,SBD
1,Jake Allonby,M,1997-08-06,Wraps,M_OCR_ABPU,80,82.5,175,185,195,195,110,117.5,-120,117.5,225,240,252.5,252.5,565,SBD
2,Callan Pritchard,M,1998-04-04,Raw,M_OCR_ABPU,81.1,82.5,130,140,-150,140,105,112.5,117.5,117.5,-170,170,180,180,437.5,SBD
1,Bradley Foley,M,1997-07-01,Raw,M_OCR_ABPU,99.7,100,-162.5,162.5,172.5,172.5,95,-100,-100,95,205,220,-225,220,487.5,SBD
1,William Maxwell-Penny,M,1991-08-09,Raw,M_OCR_ABPU,103.9,110,175,182.5,190,190,122.5,130,135,135,210,225,-230,225,550,SBD
2,Chris Brown #19,M,1987-05-12,Raw,M_OCR_ABPU,108,110,150,160,170,170,100,110,115,115,210,225,-235,225,510,SBD
DQ,Tom Pescott,M,1993-04-17,Wraps,M_OCR_ABPU,107.9,110,190,200,-207.5,200,-120,,,,,,,,,SBD
1,Jon Birkens,M,1989-03-01,Raw,M_OCR_ABPU,122.2,125,195,210,220,220,130,-137.5,-137.5,130,225,245,-255,245,595,SBD
1,Finn Leahy,M,2007-03-14,Raw,M_TCR_2_ABPU,71.6,75,130,140,150,150,100,110,-117.5,110,180,190,200,200,460,SBD
1,Jason Hurrell,M,2004-09-14,Raw,M_TCR_3_BPU,89,90,205,-210,-210,205,-115,115,125,125,220,230,237.5,237.5,567.5,SBD
1,William Spary,M,2006-01-03,Raw,M_TCR_3_ABPU,75,75,152.5,-165,170,170,112.5,120,-125,120,200,217.5,-227.5,217.5,507.5,SBD
2,Alexander Ley,M,2005-12-28,Raw,M_TCR_3_ABPU,74,75,170,175,180,180,142.5,-147.5,-147.5,142.5,172.5,-180,-180,172.5,495,SBD
1,Liam Hawes,M,2005-05-17,Wraps,M_TCR_3_ABPU,85.2,90,180,192.5,205,205,-100,100,-110,100,200,-215,-215,200,505,SBD
1,Jagen Toprak,M,2004-05-19,Raw,M_TCR_3_ABPU,107,110,190,-200,-200,190,135,-142.5,-147.5,135,200,210,220,220,545,SBD
1,Kevin Smith #21,M,1963-05-26,Raw,M_MR_5_BPU,86.7,90,,,,,95,100,105,105,130,140,150,150,255,BD
DQ,Jan Puhlovsky,M,1978-04-05,Raw,M_MR_2_BPU,118.7,125,,,,,-175,,,,,,,,,B
1,Lee Mungovan,M,1980-02-19,Raw,M_MR_1_ABPU,129.8,140,,,,,165,-170,-170,165,,,,,165,B
1,Dean Piggott,M,1994-06-27,Raw,M_OR_BPU,93.2,100,,,,,180,190,-200,190,,,,,190,B
1,John Lock,M,1983-10-08,Single-ply,M_MES_1_BPU,105.9,110,,,,,,,,,270,300,-305,300,300,D
1,Ray Porter #3,M,1958-05-18,Raw,M_MR_6_BPU,98.7,100,,,,,,,,,162.5,172.5,182.5,182.5,182.5,D
