Sex,WeightClassKg,Name,Team,Age,Division,BodyweightKg,Squat1Kg,Squat2Kg,Squat3Kg,Squat4Kg,Best3SquatKg,Bench1Kg,Bench2Kg,Bench3Kg,Bench4Kg,Best3BenchKg,Deadlift1Kg,Deadlift2Kg,Deadlift3Kg,Deadlift4Kg,Best3DeadliftKg,TotalKg,Event,Place,Equipment
F,44,Tara O'Donnell,CIT,24,Open,43.9,52.5,57.5,62.5,70,62.5,,,,,,,,,,,62.5,S,1,Raw
F,44,Serena Pierce,IRE,16,Teen 16-17,40,30,35,40,42.5,40,,,,,,,,,,,40,S,1,Raw
F,47.5,Rej Makinano,IRE,19,Teen 18-19,46.5,35,40,47.5,-55,47.5,,,,,,,,,,,47.5,S,1,Raw
F,50.5,Hazel Hu,ABS,30,Open,49.1,102.5,-105,-105,,102.5,,,,,,,,,,,102.5,S,1,Raw
F,50.5,Anna Hourihane,ABS,21,Juniors 20-24,50.4,87.5,90,-92.5,,90,,,,,,,,,,,90,S,1,Raw
F,50.5,Mairead Murphy,IRE,23,Juniors 20-24,50.4,-70,70,75,,75,,,,,,,,,,,75,S,2,Raw
F,50.5,Jody Cusack,IRE,17,Teen 16-17,49.5,-60,67.5,70,75,70,,,,,,,,,,,70,S,1,Raw
F,50.5,Belen Reyes,Ire,25,Open,49.4,27.5,-35,37.5,,37.5,,,,,,,,,,,37.5,S,2,Raw
F,53,Medb Murtagh,Drumconda,22,Juniors 20-24,52.6,90.5,97.5,-100,,97.5,,,,,,,,,,,97.5,S,1,Raw
F,53,Louise Capicotto,Lough Uni,25,Open,52.9,80,85,90,-95,90,,,,,,,,,,,90,S,1,Raw
F,53,Sarah Flynn,IRE,41,Masters 40-44,52.4,75,80,85,,85,,,,,,,,,,,85,S,1,Raw
F,53,Aisling Alexander,he Gym Balli,17,Teen 16-17,53,60,-70,75,,75,,,,,,,,,,,75,S,1,Raw
F,53,Rosie Healy,IRE,19,Teen 18-19,52.7,-60,62.5,-65,,62.5,,,,,,,,,,,62.5,S,1,Raw
F,55.5,Laura O'Riordan,CIT,23,Juniors 20-24,55.2,95,102.5,-107.5,,102.5,,,,,,,,,,,102.5,S,1,Raw
F,55.5,Carol Brennan,Ire,37,Open,55,85,95,100,,100,,,,,,,,,,,100,S,1,Raw
F,55.5,Rachel Sheridan,IRE,30,Open,54.8,85,90,-97.5,,90,,,,,,,,,,,90,S,2,Raw
F,55.5,Sara McAleese,IRE,29,Open,55.2,-90,-90,90,,90,,,,,,,,,,,90,S,3,Raw
F,55.5,Amy Donoghue,Athlone,17,Teen 16-17,54,75,80,85,,85,,,,,,,,,,,85,S,1,Raw
F,55.5,Aibhlin Clabby,Athlone,15,Teen 14-15,54.9,60,70,75,,75,,,,,,,,,,,75,S,1,Raw
F,55.5,Geina McGrath,IRE,24,Open,55.5,60,70,-85,,70,,,,,,,,,,,70,S,4,Raw
F,58.5,Aimee O'Driscoll,UCC,22,Juniors 20-24,55.9,105,110,112.5,,112.5,,,,,,,,,,,112.5,S,1,Raw
F,58.5,Louise McKenna,Monaghan,30,Open,56.1,90,95,102.5,,102.5,,,,,,,,,,,102.5,S,1,Raw
F,58.5,Emma Scott,Grunts,24,Open,57.6,90,97.5,102.5,,102.5,,,,,,,,,,,102.5,S,2,Raw
F,58.5,Alice Colvin,D,20,Juniors 20-24,58.3,90,-95,100,,100,,,,,,,,,,,100,S,2,Raw
F,58.5,Sandra Carroll,Navan,33,Open,57.3,95,-102.5,-102.5,,95,,,,,,,,,,,95,S,3,Raw
F,58.5,Aoife Williams,IRE,23,Juniors 20-24,57,85,90,-95,,90,,,,,,,,,,,90,S,3,Raw
F,58.5,Mary Brennan,Castlecomer,38,Open,58.4,75,85,-90,,85,,,,,,,,,,,85,S,4,Raw
F,58.5,Myra Fitzgerald,IRE,34,Open,57,70,75,-80,,75,,,,,,,,,,,75,S,5,Raw
F,58.5,LaVerne Crowley,IRE,24,Open,58.1,65,75,-82.5,,75,,,,,,,,,,,75,S,6,Raw
F,58.5,Siobhan Cotter,Cork,23,Juniors 20-24,57.4,70,-80,-80,,70,,,,,,,,,,,70,S,4,Raw
F,63,Linh Nguyen #1,Ire,31,Open,60.9,-120,120,-125.5,,120,,,,,,,,,,,120,S,1,Raw
F,63,Amy Nolan,IRE,30,Open,60.8,-82.5,-90,100,,100,,,,,,,,,,,100,S,2,Raw
F,63,Fiona Somers,IRE,35,Open,62,90,97.5,100,,100,,,,,,,,,,,100,S,3,Raw
F,63,Deirde Langford,UCC,23,Juniors 20-24,59.2,87.5,92.5,-95,,92.5,,,,,,,,,,,92.5,S,1,Raw
F,63,Aisling Stapleton,IRE,23,Juniors 20-24,59.8,80,87.5,92.5,,92.5,,,,,,,,,,,92.5,S,2,Raw
F,63,Toni O'Driscoll,IRE,44,Masters 40-44,62.4,-87.5,87.5,92.5,,92.5,,,,,,,,,,,92.5,S,1,Raw
F,63,Mickella Gill,IRE,16,Teen 16-17,62.9,75,85,92.5,95,92.5,,,,,,,,,,,92.5,S,1,Raw
F,63,Sarah Scallan,Dublin,29,Open,58.9,85,90,-95,,90,,,,,,,,,,,90,S,4,Raw
F,63,Gemma Kavanagh,IRE,42,Masters 40-44,62.8,80,90,-95.5,,90,,,,,,,,,,,90,S,2,Raw
F,63,Aoife Fennelly,D,25,Open,60,80,-85,85,,85,,,,,,,,,,,85,S,5,Raw
F,63,Leanne Keane,IRE,29,Open,61.8,-80,80,85,,85,,,,,,,,,,,85,S,6,Raw
F,63,Roisin O'Malley,IRE,26,Open,61.9,70,77.5,-82.5,,77.5,,,,,,,,,,,77.5,S,7,Raw
F,63,Sharon O'Reilly,Dublin,42,Masters 40-44,62.9,65,-70,70,,70,,,,,,,,,,,70,S,3,Raw
F,63,Janice O'Neill,IRE,37,Open,61.1,55,60,65,,65,,,,,,,,,,,65,S,8,Raw
F,63,Clara Jenkinson,IRE,39,Open,61.3,60,62.5,65,,65,,,,,,,,,,,65,S,9,Raw
F,63,Ciara Byrne,D,28,Open,60.9,60,-65,-65,,60,,,,,,,,,,,60,S,10,Raw
F,63,Aine Burke,Cork,20,Juniors 20-24,62.3,52.5,57.5,-62.5,,57.5,,,,,,,,,,,57.5,S,3,Raw
F,70,Karen Barry,Cork,48,Masters 45-49,68.4,120,125,130,,130,,,,,,,,,,,130,S,1,Raw
F,70,Assumpta Feeney,Target,38,Open,65.1,117.5,122.5,-127.5,,122.5,,,,,,,,,,,122.5,S,1,Raw
F,70,Clare Patterson,Manchester,30,Open,67.3,110,-115,-117.5,,110,,,,,,,,,,,110,S,2,Raw
F,70,Sylwia Majszyk,Kilbeggan,37,Open,68,110,-115,-115,,110,,,,,,,,,,,110,S,3,Raw
F,70,A-J Lawrence,TPFA,36,Open,67.4,95,105,-110,,105,,,,,,,,,,,105,S,4,Raw
F,70,Liz Flood,Carrickmaros,40,Masters 40-44,70,95,100,105,,105,,,,,,,,,,,105,S,1,Raw
F,70,Susan Usher,IRE,27,Open,69.2,100,-112.5,-112.5,,100,,,,,,,,,,,100,S,5,Raw
F,70,Niamh Moffatt,Ballina,33,Open,63.7,90,92.5,97.5,,97.5,,,,,,,,,,,97.5,S,6,Raw
F,70,Niamh Savage,IRE,36,Open,66.7,90,-100,-100,,90,,,,,,,,,,,90,S,7,Raw
F,70,Helen Twomey,IRE,47,Masters 45-49,68.9,85,90,-100,,90,,,,,,,,,,,90,S,2,Raw
F,70,Ali-Rose Sisk,IRE,19,Teen 18-19,70,70,80,85,,85,,,,,,,,,,,85,S,1,Raw
F,70,Patricia O Halloran,IRE,19,Teen 18-19,70,80,-95,-105,,80,,,,,,,,,,,80,S,2,Raw
F,70,Ana Kehoe,IRE,28,Open,63.2,-67.5,-67.5,67.5,,67.5,,,,,,,,,,,67.5,S,8,Raw
F,70,Siobhan Stapleton,IRE,42,Masters 40-44,67.7,55,60,65,,65,,,,,,,,,,,65,S,2,Raw
F,70,Siobhan Fitzpatrick,D,24,Open,69.1,55,60,65,,65,,,,,,,,,,,65,S,9,Raw
F,70,Gillian Butt-Davies,D,40,Masters 40-44,69.4,60,65,-70,,65,,,,,,,,,,,65,S,3,Raw
F,70,Fionnuala Goggin,IRE,26,Open,66.8,-55,55,-60,,55,,,,,,,,,,,55,S,10,Raw
F,80,Danielle Hayes,r Model Body,27,Open,79.4,140,145,-150.5,,145,,,,,,,,,,,145,S,1,Raw
F,80,Louise K Whelan,Abs Gym,32,Open,75,125,132.5,137.5,,137.5,,,,,,,,,,,137.5,S,2,Raw
F,80,Sarah Doyle #2,volution Fitn,29,Open,79.1,120,127.5,132.5,,132.5,,,,,,,,,,,132.5,S,3,Raw
F,80,Shannon Pollock,IRE,27,Open,75.8,120,130,-135,,130,,,,,,,,,,,130,S,4,Raw
F,80,Grainne Considine,IRE,21,Juniors 20-24,79.5,110,120,125,,125,,,,,,,,,,,125,S,1,Raw
F,80,Danielle O'Sullivan,IRE,33,Open,73.5,110,117.5,-122.5,,117.5,,,,,,,,,,,117.5,S,5,Raw
F,80,Michelle Moran,TPFA,32,Open,73.4,100,110,112.5,,112.5,,,,,,,,,,,112.5,S,6,Raw
F,80,Aoife O'Keeffe,IRE,35,Open,79.3,90,100,110,,110,,,,,,,,,,,110,S,7,Raw
F,80,Lisa Duffy,TPFA,35,Open,70.6,97.5,105,107.5,,107.5,,,,,,,,,,,107.5,S,8,Raw
F,80,Pearl Kennedy,IRE,23,Juniors 20-24,72,100,105,-110,,105,,,,,,,,,,,105,S,2,Raw
F,80,Siobhan Jacob,IRE,40,Masters 40-44,72.9,85,92.5,100,,100,,,,,,,,,,,100,S,1,Raw
F,80,Cliona O'Driscoll,CIT,22,Juniors 20-24,75,90,-100,100,-103,100,,,,,,,,,,,100,S,3,Raw
F,80,Danielle O'Shea,CIT,21,Juniors 20-24,76,85,92.5,100,102.5,100,,,,,,,,,,,100,S,4,Raw
F,80,Liz Kilduff,Target Fitness,40,Masters 40-44,76.3,85,90,97.5,,97.5,,,,,,,,,,,97.5,S,2,Raw
F,80,Linda Byrne,Pheonix,40,Masters 40-44,75.9,80,87.5,95,,95,,,,,,,,,,,95,S,3,Raw
F,80,Kasia Linde,D,31,Open,72,85,87.5,90,,90,,,,,,,,,,,90,S,9,Raw
F,80,Rachel Godfrey,IRE,41,Masters 40-44,77.6,75,-85,-85,,75,,,,,,,,,,,75,S,4,Raw
F,90,Olivia Lane,Galway,21,Juniors 20-24,88.7,110,115,120,,120,,,,,,,,,,,120,S,1,Raw
F,90,Christina Furlong,IRE,21,Juniors 20-24,89.3,90,97.5,102.5,,102.5,,,,,,,,,,,102.5,S,2,Raw
F,90,Aoife O'Leary,Cork,19,Teen 18-19,80.6,85,92.5,100,,100,,,,,,,,,,,100,S,1,Raw
F,90,Nicole Craig #1,Cork,38,Open,89.4,80,90,-100,,90,,,,,,,,,,,90,S,1,Raw
F,90,Mary Nelson,D,43,Masters 40-44,83.6,80,-90,,,80,,,,,,,,,,,80,S,1,Raw
F,90,Mairead McKnight,IRE,35,Open,84,-70,-70,-70,,,,,,,,,,,,,,S,DQ,Raw
F,90+,Maedhbh Hanley,Tipperary,29,Open,108.5,155,165,-172.5,,165,,,,,,,,,,,165,S,1,Raw
F,90+,Ayshea Ullah,Ire,38,Open,100.1,150,-160,160,,160,,,,,,,,,,,160,S,2,Raw
F,90+,Paulina Coleman,Finn,37,Open,114.6,135,140,150,,150,,,,,,,,,,,150,S,3,Raw
F,90+,Gemma Jethwa,IRE,29,Open,98.2,127.5,132.5,137.5,,137.5,,,,,,,,,,,137.5,S,4,Raw
F,90+,Arlette Bomahou,Ben Dunnes,39,Open,110,100,110,-115,,110,,,,,,,,,,,110,S,5,Raw
F,90+,Miranda Connolly,Rosco,42,Masters 40-44,110.6,-95,105,-113,,105,,,,,,,,,,,105,S,1,Raw
M,56,Kevin Rocks,Belfast,35,Open,55.6,117.5,125,130,-135,130,,,,,,,,,,,130,S,1,Raw
M,60,Kris Boyce,D,30,Open,59.6,145,-155,-155,,145,,,,,,,,,,,145,S,1,Raw
M,67.5,David McQuillan,Abs,29,Open,66.4,175,182.5,187.5,-190.5,187.5,,,,,,,,,,,187.5,S,1,Raw
M,67.5,Kelvin Moynihan,CIT,23,Juniors 20-24,66.5,165,177.5,182.5,,182.5,,,,,,,,,,,182.5,S,1,Raw
M,67.5,Deividas Barisas,Abs,23,Juniors 20-24,65.9,165,170,175,-185,175,,,,,,,,,,,175,S,2,Raw
M,67.5,David Neary,Ballina,27,Open,66.6,160,165,-170,,165,,,,,,,,,,,165,S,2,Raw
M,67.5,Paul McLaren,Tipperary,41,Masters 40-44,66.9,140,145,150,,150,,,,,,,,,,,150,S,1,Raw
M,67.5,Daniel Holder,IRE,20,Juniors 20-24,66.7,135,140,145,,145,,,,,,,,,,,145,S,3,Raw
M,67.5,Jason Finan,SDSC,28,Open,67.3,125,135,140,,140,,,,,,,,,,,140,S,3,Raw
M,67.5,Darren Moloney,IRE,18,Teen 18-19,65,-125,125,135,,135,,,,,,,,,,,135,S,1,Raw
M,67.5,Terry Coates,N,32,Open,65.5,130,-135,135,,135,,,,,,,,,,,135,S,4,Raw
M,67.5,Jamie Naughton,IRE,39,Open,65.4,105,115,125,,125,,,,,,,,,,,125,S,5,Raw
M,67.5,Niall Fitzgerald,IRE,16,Teen 16-17,65,90,100,110,,110,,,,,,,,,,,110,S,1,Raw
M,67.5,Paul Conlon #1,IRE,45,Masters 45-49,66.4,-75,75,85,,85,,,,,,,,,,,85,S,1,Raw
M,75,Joe O'Rourke,Malbay,39,Open,73.6,-165,170,185,,185,,,,,,,,,,,185,S,1,Raw
M,75,John Donavan,CIT,23,Juniors 20-24,73.3,170,180,-190,,180,,,,,,,,,,,180,S,1,Raw
M,75,Gary McGivern,UPC,32,Open,73.8,160,170,180,,180,,,,,,,,,,,180,S,2,Raw
M,75,Martin Maher,IRE,36,Open,71,165,170,175,,175,,,,,,,,,,,175,S,3,Raw
M,75,Darren Fehilly,mel CoTipp,17,Teen 16-17,73.1,160,170,175,-180,175,,,,,,,,,,,175,S,1,Raw
M,75,Steven Gaughan,estport,23,Juniors 20-24,70,150,160,170,,170,,,,,,,,,,,170,S,2,Raw
M,75,Kevin Mitchell,IRE,17,Teen 16-17,74,170,-172,-175,,170,,,,,,,,,,,170,S,2,Raw
M,75,Niall Beagan,IRE,20,Juniors 20-24,73.6,147.5,155,162.5,,162.5,,,,,,,,,,,162.5,S,3,Raw
M,75,Eamonn Roch,Powerliftin,20,Juniors 20-24,72.6,150,160,-170,,160,,,,,,,,,,,160,S,4,Raw
M,75,Brian Ryan,IRE,20,Juniors 20-24,74.1,135,145,160,,160,,,,,,,,,,,160,S,5,Raw
M,75,David Cummins,IRE,23,Juniors 20-24,74.2,-150,-160,160,,160,,,,,,,,,,,160,S,6,Raw
M,75,Ivan Smyth,Ballina,18,Teen 18-19,75,160,-177.5,-177.5,,160,,,,,,,,,,,160,S,1,Raw
M,75,Danny Foran,IRE,27,Open,73.8,140,-150,155,,155,,,,,,,,,,,155,S,4,Raw
M,75,Michael Collins #8,Limerick,21,Juniors 20-24,74.6,130,140,150,,150,,,,,,,,,,,150,S,7,Raw
M,75,Ryan Ging,IRE,22,Juniors 20-24,73,142.5,147.5,-152.5,,147.5,,,,,,,,,,,147.5,S,8,Raw
M,75,Aidan Creamer,Ardee,25,Open,71.8,120,135,142.5,,142.5,,,,,,,,,,,142.5,S,5,Raw
M,75,Ryan Hardy,IRE,21,Juniors 20-24,72.8,142.5,-155,-155,,142.5,,,,,,,,,,,142.5,S,9,Raw
M,75,Tommy McCormack,IRE,31,Open,72.5,140,-160,-160,,140,,,,,,,,,,,140,S,6,Raw
M,75,Tim Locke,IRE,19,Teen 18-19,73.5,115,125,-135,,125,,,,,,,,,,,125,S,2,Raw
M,75,Gavin Fee,IRE,26,Open,71.5,115,122.5,-127.5,,122.5,,,,,,,,,,,122.5,S,7,Raw
M,75,John Mandarano,Ire,17,Teen 16-17,73,105,115,120,,120,,,,,,,,,,,120,S,3,Raw
M,75,Niall Keller,IRE,19,Teen 18-19,70.5,85,95,110,,110,,,,,,,,,,,110,S,3,Raw
M,75,James Kiely,IRE,21,Juniors 20-24,74.3,-85,95,110,,110,,,,,,,,,,,110,S,10,Raw
M,75,Adam Loughrane,D,17,Teen 16-17,75,110,-120,-130,,110,,,,,,,,,,,110,S,4,Raw
M,82.5,John Ryan #4,Powerliftin,41,Masters 40-44,80.6,210,215,220,,220,,,,,,,,,,,220,S,1,Raw
M,82.5,Alex Trimble,IRE,21,Juniors 20-24,80.4,200,-207.5,-207.5,,200,,,,,,,,,,,200,S,1,Raw
M,82.5,David Gagnon,CIT,21,Juniors 20-24,80.6,170,185,200,,200,,,,,,,,,,,200,S,2,Raw
M,82.5,Eoin Bourke,Ballina,21,Juniors 20-24,80.7,190,-200,-206,,190,,,,,,,,,,,190,S,3,Raw
M,82.5,Andrew Laverty,Eo,25,Open,81.8,185,-190,190,,190,,,,,,,,,,,190,S,1,Raw
M,82.5,Ashwin Amersi,Glasn,26,Open,79.9,170,180,185,,185,,,,,,,,,,,185,S,2,Raw
M,82.5,Dan Hurley,UCC,30,Open,81.2,165,180,185,,185,,,,,,,,,,,185,S,3,Raw
M,82.5,Gearoid O'Donovan,IRE,18,Teen 18-19,81.4,170,-180,185,195.5,185,,,,,,,,,,,185,S,1,Raw
M,82.5,Adam McCarthy,IRE,19,Teen 18-19,77.9,150,165,180,,180,,,,,,,,,,,180,S,2,Raw
M,82.5,Gareth Small,IRE,18,Teen 18-19,80.3,180,-190,-190,,180,,,,,,,,,,,180,S,3,Raw
M,82.5,Jack O'Dwyer,IRE,19,Teen 18-19,81.4,160,170,180,,180,,,,,,,,,,,180,S,4,Raw
M,82.5,Danny Howard,Ire,26,Open,82.5,170,180,-190,,180,,,,,,,,,,,180,S,4,Raw
M,82.5,Simon Standbridge,IRE,21,Juniors 20-24,81,165,175,-180,,175,,,,,,,,,,,175,S,4,Raw
M,82.5,Noel McLoughlin,IRE,19,Teen 18-19,81.5,150,165,175,,175,,,,,,,,,,,175,S,5,Raw
M,82.5,Jack Ryan,IRE,21,Juniors 20-24,77.8,155,165,172.5,,172.5,,,,,,,,,,,172.5,S,5,Raw
M,82.5,Leonard Clarke,Rasic,36,Open,77.4,160,170,-180,,170,,,,,,,,,,,170,S,5,Raw
M,82.5,Eoin Jeffries,Ire,22,Juniors 20-24,80.7,150,160,-170,,160,,,,,,,,,,,160,S,6,Raw
M,82.5,Pierre Ponchon,IRE,21,Juniors 20-24,81.8,145,160,-165,,160,,,,,,,,,,,160,S,7,Raw
M,82.5,Robert O'Conner,Worxs,17,Teen 16-17,76.6,140,150,155,,155,,,,,,,,,,,155,S,1,Raw
M,82.5,Aaron Barker,UCC,23,Juniors 20-24,81.1,140,145,150,,150,,,,,,,,,,,150,S,8,Raw
M,82.5,Sean Coughlan,N,22,Juniors 20-24,82.2,140,145,150,,150,,,,,,,,,,,150,S,9,Raw
M,82.5,John Devlin,IRE,32,Open,80.2,135,140,145,,145,,,,,,,,,,,145,S,6,Raw
M,82.5,Eugene Kaar,IRE,26,Open,80.4,140,145,-150,,145,,,,,,,,,,,145,S,7,Raw
M,82.5,David Griffin,CIT,21,Juniors 20-24,82.3,130,140,145,,145,,,,,,,,,,,145,S,10,Raw
M,82.5,Barry Donoghue,Castleblayne,29,Open,81.9,130,135,-140,,135,,,,,,,,,,,135,S,8,Raw
M,82.5,Peter Jennings,IRE,19,Teen 18-19,77.5,112.5,120,130,,130,,,,,,,,,,,130,S,6,Raw
M,82.5,Remo Minelli,Ire,46,Masters 45-49,81,115,-122.5,122.5,,122.5,,,,,,,,,,,122.5,S,1,Raw
M,90,Arthur Lynch,D,22,Juniors 20-24,87.9,210,220,225,,225,,,,,,,,,,,225,S,1,Raw
M,90,Adam Trimble,IRE,19,Teen 18-19,86.3,-210,-220,220,,220,,,,,,,,,,,220,S,1,Raw
M,90,Saigid Mirzajev,SFX,29,Open,90,220,-240,-240,,220,,,,,,,,,,,220,S,1,Raw
M,90,Eoghan O'Neill,IRE,21,Juniors 20-24,84.6,-210,210,217.5,,217.5,,,,,,,,,,,217.5,S,2,Raw
M,90,David Moore #13,Ire,28,Open,86.5,170,185,-190,,185,,,,,,,,,,,185,S,2,Raw
M,90,David Nolan,IRE,33,Open,88.5,-165,177.5,185,,185,,,,,,,,,,,185,S,3,Raw
M,90,Gavin Denihan,IRE,28,Open,88.7,160,170,182.5,,182.5,,,,,,,,,,,182.5,S,4,Raw
M,90,Graham Norton,IRE,21,Juniors 20-24,88,180,-190,-200,,180,,,,,,,,,,,180,S,3,Raw
M,90,Ethan Preston,Ire,18,Teen 18-19,89.9,170,180,-185,,180,,,,,,,,,,,180,S,2,Raw
M,90,Eoghan Carroll,CIT,24,Open,86.8,165,172.5,177.5,,177.5,,,,,,,,,,,177.5,S,5,Raw
M,90,William O'Dwyer,Limerick,19,Teen 18-19,88,165,172.5,-180,,172.5,,,,,,,,,,,172.5,S,3,Raw
M,90,Andrew Wynne,IRE,31,Open,83,160,170,-180,,170,,,,,,,,,,,170,S,6,Raw
M,90,PJ Kehoe,IRE,21,Juniors 20-24,85.2,-155,-165,170,,170,,,,,,,,,,,170,S,4,Raw
M,90,Jamie McGrath,Kilkenny,28,Open,87.8,150,160,170,,170,,,,,,,,,,,170,S,7,Raw
M,90,Conor Kilbane,IRE,18,Teen 18-19,87.8,140,155,165,,165,,,,,,,,,,,165,S,4,Raw
M,90,Thomas Walsh,IRE,23,Juniors 20-24,83.3,140,150,160,,160,,,,,,,,,,,160,S,5,Raw
M,90,Csaba Rajk,IRE,38,Open,88.6,140,150,155,,155,,,,,,,,,,,155,S,8,Raw
M,90,Brian Maden,IRE,21,Juniors 20-24,85.6,122.5,132.5,-142.5,,132.5,,,,,,,,,,,132.5,S,6,Raw
M,90,John Watson,Ire,43,Masters 40-44,89.7,-130,130,-140,,130,,,,,,,,,,,130,S,1,Raw
M,90,Ciaran O' Sullivan,IRE,18,Teen 18-19,86.4,125,-140,-140,,125,,,,,,,,,,,125,S,5,Raw
M,90,Dave Cronin,IRE,28,Open,88.2,100,115,-125,,115,,,,,,,,,,,115,S,9,Raw
M,100,Barry Pigott,Cork,23,Juniors 20-24,90.3,230,245,260,,260,,,,,,,,,,,260,S,1,Raw
M,100,Austin Hickey,D,34,Open,98.9,230,250,260,,260,,,,,,,,,,,260,S,1,Raw
M,100,Andrew Richardson,NIre,21,Juniors 20-24,95.5,210,230,246,-260.5,246,,,,,,,,,,,246,S,2,Raw
M,100,Darren Wilson,IRE,28,Open,98.6,220,-235,-235,,220,,,,,,,,,,,220,S,2,Raw
M,100,Shane Nugent,SFX,25,Open,99.8,200,-220,220,,220,,,,,,,,,,,220,S,3,Raw
M,100,Joey Weatherill,IRE,21,Juniors 20-24,93.6,190,-202.5,202.5,,202.5,,,,,,,,,,,202.5,S,3,Raw
M,100,Jamie Farrel,IRE,30,Open,98.8,195,202.5,-207.5,,202.5,,,,,,,,,,,202.5,S,4,Raw
M,100,Leonard O'Sullivan,IRE,19,Teen 18-19,98.1,-180,180,200,,200,,,,,,,,,,,200,S,1,Raw
M,100,Derrie Sutton,IRE,23,Juniors 20-24,99.6,-180,-200,200,,200,,,,,,,,,,,200,S,4,Raw
M,100,Peter Manley,IRE,28,Open,95.9,170,185,-192.5,,185,,,,,,,,,,,185,S,5,Raw
M,100,Anthony O'Halloran,IRE,49,Masters 45-49,98,170,180,185,,185,,,,,,,,,,,185,S,1,Raw
M,100,Aidan Kavanagh,IRE,39,Open,96.3,150,165,175,,175,,,,,,,,,,,175,S,6,Raw
M,100,Gavin O'Neill,Ire,18,Teen 18-19,93.7,165,-180,-180,,165,,,,,,,,,,,165,S,2,Raw
M,100,Sean Purcell,IRE,24,Open,98.6,-140,150,160,,160,,,,,,,,,,,160,S,7,Raw
M,100,Arthur Greene,Ire,17,Teen 16-17,92.4,150,155,-160,,155,,,,,,,,,,,155,S,1,Raw
M,100,David Collins,IRE,18,Teen 18-19,92.7,-135,-155,155,,155,,,,,,,,,,,155,S,3,Raw
M,100,Stephen O'Sullivan,IRE,49,Masters 45-49,98,130,140,150,,150,,,,,,,,,,,150,S,2,Raw
M,100,Luke Daly-Ronayne,IRE,22,Juniors 20-24,95.1,110,120,-130,,120,,,,,,,,,,,120,S,5,Raw
M,110,Mohammed Dafalla,Ire,19,Teen 18-19,103,212.5,230,-240,,230,,,,,,,,,,,230,S,1,Raw
M,110,Richard Nolan,Ire,28,Open,109.5,195,205,215,,215,,,,,,,,,,,215,S,1,Raw
M,110,Paul Brennan,Naas,40,Masters 40-44,105.5,200,207.5,212.5,,212.5,,,,,,,,,,,212.5,S,1,Raw
M,110,Ryan Flanagan,Ire,24,Open,107.7,190,210,-215,,210,,,,,,,,,,,210,S,2,Raw
M,110,Jason Kavanagh,IRE,37,Open,108.9,180,200,210,,210,,,,,,,,,,,210,S,3,Raw
M,110,Colin Power,IRE,32,Open,105.8,180,190,200,,200,,,,,,,,,,,200,S,4,Raw
M,110,Barry O'Sullivan,Ire,31,Open,108.1,160,-180,200,,200,,,,,,,,,,,200,S,5,Raw
M,110,John McMenamin,Ire,50,Masters 50-54,108.7,180,190,195,,195,,,,,,,,,,,195,S,1,Raw
M,110,Connor Meyler,IRE,19,Teen 18-19,105.9,185,192.5,-200,,192.5,,,,,,,,,,,192.5,S,2,Raw
M,110,Joe Norton,IRE,29,Open,108.7,170,180,-185,,180,,,,,,,,,,,180,S,6,Raw
M,110,Patrick McNamara #3,Ire,58,Masters 55-59,109.7,-170,170,202.5,,202.5,,,,,,,,,,,202.5,S,1,Raw
M,110,Ross O'Connor,D,19,Teen 18-19,109.1,135,150,155,,155,,,,,,,,,,,155,S,3,Raw
M,110,Harry Craig,IRE,15,Teen 14-15,104.1,120,130,-140,,130,,,,,,,,,,,130,S,1,Raw
M,125,Eoin O'Leary,Ire,22,Juniors 20-24,120.2,215,225,235,,235,,,,,,,,,,,235,S,1,Raw
M,125,Cillian Groom,IRE,18,Teen 18-19,113.9,160,170,180,,180,,,,,,,,,,,180,S,1,Raw
M,125,Michael Chisholm,No,44,Masters 40-44,114.2,170,-180,180,,180,,,,,,,,,,,180,S,1,Raw
M,125,Jason Fehily,IRE,16,Teen 16-17,122.8,-130,130,140,,140,,,,,,,,,,,140,S,1,Raw
M,145,Micheal Downey,Ire,22,Juniors 20-24,131.9,225,252.5,-260,,252.5,,,,,,,,,,,252.5,S,1,Raw
M,145,Andre Du Plessis,Ire,50,Masters 50-54,139.8,210,230,240,,240,,,,,,,,,,,240,S,1,Raw
M,145,John O'Dwyer,Limerick,59,Masters 55-59,130.3,190,210,215.5,,215.5,,,,,,,,,,,215.5,S,1,Raw
M,145,Jonah Faulkner,ire,19,Teen 18-19,133.3,175,180,185,,185,,,,,,,,,,,185,S,1,Raw
M,145,Anthony Clarke,Gorey,32,Open,131.4,160,170,180,,180,,,,,,,,,,,180,S,1,Raw
M,145,Christopher McBride,IRE,32,Open,143.8,-150,-160,165,,165,,,,,,,,,,,165,S,2,Raw
F,70,Assumpta Feeney,Target,38,Open,65.1,120.5,130,,,130,,,,,,,,,,,130,S,1,Single-ply
M,60,Barry Smith #1,Ardee,27,Open,59,152.5,160.5,165,170,165,,,,,,,,,,,165,S,1,Single-ply
M,67.5,Paul Conlon #1,IRE,45,Masters 45-49,66.4,80,90,-100,,90,,,,,,,,,,,90,S,1,Single-ply
M,75,John Donavan,CIT,23,Juniors 20-24,73.3,210,220,-225,,220,,,,,,,,,,,220,S,1,Single-ply
M,75,Tony Pierce,No,55,Masters 55-59,73.2,165,-170,-170,,165,,,,,,,,,,,165,S,1,Single-ply
M,82.5,Kenneth Taaffa,niversal,40,Masters 40-44,80.6,240,255,-265.5,,255,,,,,,,,,,,255,S,1,Single-ply
M,82.5,Dessie Doyle,Aches,35,Open,81.7,240,-245.5,245.5,,245.5,,,,,,,,,,,245.5,S,1,Single-ply
M,82.5,Rob Duncan,ce,32,Open,80.8,200,-215,-215,,200,,,,,,,,,,,200,S,2,Single-ply
M,90,David Day,Target,42,Masters 40-44,90,185,195,205,,205,,,,,,,,,,,205,S,1,Single-ply
M,90,Sean Cannife,Ire,67,Masters 65-69,86.1,90,100,102.5,,102.5,,,,,,,,,,,102.5,S,1,Single-ply
M,100,David Doyle,Ace,37,Open,96.7,225,260,-290,,260,,,,,,,,,,,260,S,1,Single-ply
M,100,Ivan Lynch,Pai,36,Open,,91.6,250,-280,,250,,,,,,,,,,,250,S,2,Single-ply
M,145,Andre Du Plessis,Ire,50,Masters 50-54,139.8,225,240,251,,251,,,,,,,,,,,251,S,1,Single-ply
F,44,Serena Pierce,IRE,16,Teen 16-17,40,,,,,,25,27.5,-30,,27.5,,,,,,27.5,B,1,Raw
F,47.5,Rej Makinano,IRE,19,Teen 18-19,46.5,,,,,,27.5,-32.5,-35.5,,27.5,,,,,,27.5,B,1,Raw
F,50.5,Hazel Hu,Abs,30,Open,49.1,,,,,,57.5,-60,-60,,57.5,,,,,,57.5,B,1,Raw
F,50.5,Anna Hourihane,ABS,21,Juniors 20-24,50.4,,,,,,52.5,-55,-55,,52.5,,,,,,52.5,B,1,Raw
F,53,Medb Murtagh,Drumconda,22,Juniors 20-24,52.6,,,,,,50,-52.5,-52.5,,50,,,,,,50,B,1,Raw
F,53,Sarah Flynn,IRE,41,Masters 40-44,52.4,,,,,,45,-47.5,-47.5,,45,,,,,,45,B,1,Raw
F,53,Orla O'Flaherty,IRE,28,Open,50.9,,,,,,37.5,40,-42.5,,40,,,,,,40,B,1,Raw
F,53,Aisling Alexander,Gym,17,Teen 16-17,53,,,,,,30,35,-45,,35,,,,,,35,B,1,Raw
F,55.5,Laura O'Riordan,CIT,23,Juniors 20-24,55.2,,,,,,45,-50,50,,50,,,,,,50,B,1,Raw
F,55.5,Aibhlin Clabby,Athlone,15,Teen 14-15,54.9,,,,,,45,47.5,-50,,47.5,,,,,,47.5,B,1,Raw
F,55.5,Geina McGrath,IRE,24,Open,55.5,,,,,,35,-45,47.5,,47.5,,,,,,47.5,B,1,Raw
F,55.5,Carol Brennan,Ire,37,Open,55,,,,,,45,-47.5,-47.5,,45,,,,,,45,B,2,Raw
F,55.5,Rachel Dunne,Target,38,Open,54.8,,,,,,35,37.5,42.5,,42.5,,,,,,42.5,B,3,Raw
F,55.5,Amy Donoghue,Athlone,17,Teen 16-17,54,,,,,,35,40,-42.5,,40,,,,,,40,B,1,Raw
F,55.5,Sara McAleese,Dublin,29,Open,55.2,,,,,,37.5,-40,-40,,37.5,,,,,,37.5,B,4,Raw
F,55.5,Rachel Sheridan,IRE,30,Open,54.8,,,,,,-42.5,-42.5,-42.5,,,,,,,,,B,DQ,Raw
F,58.5,Louise McKenna,Monaghan,30,Open,56.1,,,,,,62.5,-67.5,-67.5,,62.5,,,,,,62.5,B,1,Raw
F,58.5,Aimee O'Driscoll,UCC,22,Juniors 20-24,55.9,,,,,,55,-60,60,,60,,,,,,60,B,1,Raw
F,58.5,Emma Scott,Grunts,24,Open,57.6,,,,,,52.5,-55,-55,,52.5,,,,,,52.5,B,3,Raw
F,58.5,Alice Colvin,D,20,Juniors 20-24,58.3,,,,,,42.5,47.5,-50,,47.5,,,,,,47.5,B,2,Raw
F,58.5,Mary Brennan,Castlecomer,38,Open,58.4,,,,,,45,47.5,-50,,47.5,,,,,,47.5,B,4,Raw
F,58.5,Myra Fitzgerald,IRE,34,Open,57,,,,,,42.5,45,-47.5,,45,,,,,,45,B,5,Raw
F,58.5,LaVerne Crowley,IRE,24,Open,58.1,,,,,,-40,40,-45,,40,,,,,,40,B,6,Raw
F,58.5,Dawn Brennan,Midleton,33,Open,58.2,,,,,,40,-45,-45,,40,,,,,,40,B,7,Raw
F,58.5,Sandra Carroll,Navan,33,Open,57.3,,,,,,50,-52.5,52.5,,52.5,,,,,,52.5,B,2,Raw
F,63,Gemma Kavanagh,IRE,42,Masters 40-44,62.8,,,,,,60,62.5,-65,,62.5,,,,,,62.5,B,1,Raw
F,63,Toni O'Driscoll,IRE,44,Masters 40-44,62.4,,,,,,-55,57.5,-60,,57.5,,,,,,57.5,B,2,Raw
F,63,Sarah Scallan,Dublin,29,Open,58.9,,,,,,-52.5,52.5,55,,55,,,,,,55,B,1,Raw
F,63,Fiona Somers,IRE,35,Open,62,,,,,,-52.5,52.5,55,,55,,,,,,55,B,2,Raw
F,63,Sinéad Heffernan,Ucc,31,Open,59.9,,,,,,50,52.5,-55,,52.5,,,,,,52.5,B,3,Raw
F,63,Amy Nolan,IRE,30,Open,60.8,,,,,,52.5,-57.5,-57.5,,52.5,,,,,,52.5,B,4,Raw
F,63,Karol Hynes,Target,35,Open,62.1,,,,,,45,50,-52.5,,50,,,,,,50,B,5,Raw
F,63,Leanne Keane,IRE,29,Open,61.8,,,,,,45,47.5,-52.5,,47.5,,,,,,47.5,B,6,Raw
F,63,Clara Jenkinson,IRE,39,Open,61.3,,,,,,-45,45,-47.5,,45,,,,,,45,B,7,Raw
F,63,Aisling Stapleton,IRE,23,Juniors 20-24,59.8,,,,,,42.5,-50,-50,,42.5,,,,,,42.5,B,1,Raw
F,63,Janice O'Neill,IRE,37,Open,61.1,,,,,,35,37.5,-40,,37.5,,,,,,37.5,B,8,Raw
F,63,Sharon O'Reilly,D,42,Masters 40-44,62.8,,,,,,-37.5,37.5,-40,,37.5,,,,,,37.5,B,3,Raw
F,63,Abigail Cronin,UCC,20,Juniors 20-24,60.8,,,,,,-55,-57.5,-57.5,,,,,,,,,B,DQ,Raw
F,70,Sylwia Majszyk,Kilbeggan,37,Open,68,,,,,,77.5,80,82.5,,82.5,,,,,,82.5,B,1,Raw
F,70,Clare Patterson,Manchester,30,Open,67.3,,,,,,80,-85,-85,,80,,,,,,80,B,2,Raw
F,70,Assumpta Feeney,Target,38,Open,65.1,,,,,,70,-72.5,-72.5,,70,,,,,,70,B,3,Raw
F,70,Karen Barry,Cork,48,Masters 45-49,68.4,,,,,,65,-70,-70,,65,,,,,,65,B,2,Raw
F,70,Helen Twomey,IRE,47,Masters 45-49,68.9,,,,,,60,65,67.5,,67.5,,,,,,67.5,B,1,Raw
F,70,Claire Heneghan,IRE,23,Juniors 20-24,70,,,,,,60,-62.5,65,,65,,,,,,65,B,1,Raw
F,70,Samantha Dooley,Dunne,43,Masters 40-44,66.8,,,,,,57.5,-60,60,,60,,,,,,60,B,1,Raw
F,70,Maria Maher,IRE,49,Masters 45-49,64.3,,,,,,-55,55,-57.5,,55,,,,,,55,B,3,Raw
F,70,Liz Flood,Carrickmaros,40,Masters 40-44,70,,,,,,52.5,55,-57.5,,55,,,,,,55,B,2,Raw
F,70,Patricia O Halloran,IRE,19,Teen 18-19,70,,,,,,40,50,55,,55,,,,,,55,B,1,Raw
F,70,Niamh Savage,IRE,36,Open,66.7,,,,,,52.5,-57.5,-57.5,,52.5,,,,,,52.5,B,4,Raw
F,70,Aisling Ward,Vano,37,Open,64,,,,,,45,50,-55,,50,,,,,,50,B,5,Raw
F,70,Fionnuala Goggin,IRE,26,Open,66.8,,,,,,45,-50,50,,50,,,,,,50,B,6,Raw
F,70,Siobhan Fitzpatrick,D,24,Open,69.1,,,,,,-45,47.5,50,,50,,,,,,50,B,7,Raw
F,70,Siobhan Stapleton,IRE,42,Masters 40-44,67.7,,,,,,35,-42.5,47.5,,47.5,,,,,,47.5,B,3,Raw
F,70,Ana Keogh,IRE,28,Open,63.2,,,,,,-40,-40,-40,,,,,,,,,B,DQ,Raw
F,80,Louise K Whelan,Abs,32,Open,75,,,,,,62.5,70,72.5,,72.5,,,,,,72.5,B,1,Raw
F,80,Danielle O'Sullivan,IRE,33,Open,73.5,,,,,,55,60,65,,65,,,,,,65,B,2,Raw
F,80,Donna McDonough,Ire,45,Masters 45-49,78.7,,,,,,60,62.5,65,,65,,,,,,65,B,1,Raw
F,80,Shannon Pollock,IRE,27,Open,75.8,,,,,,62.5,-65,-65,,62.5,,,,,,62.5,B,3,Raw
F,80,Grainne Considine,IRE,21,Juniors 20-24,79.5,,,,,,60,62.5,-65,,62.5,,,,,,62.5,B,1,Raw
F,80,Lisa Duffy,TPFA,35,Open,70.6,,,,,,57.5,-60,-60,,57.5,,,,,,57.5,B,4,Raw
F,80,Sarah O'Mahony,IRE,30,Open,74.7,,,,,,50,55,-60,,55,,,,,,55,B,5,Raw
F,80,Kasia Linde,D,31,Open,72,,,,,,45,47.5,52.5,,52.5,,,,,,52.5,B,6,Raw
F,80,Linda Byrne,Pheonix,40,Masters 40-44,75.9,,,,,,45,52.5,-60,,52.5,,,,,,52.5,B,1,Raw
F,80,Pearl Kennedy,IRE,23,Juniors 20-24,72,,,,,,47.5,50,-52.5,,50,,,,,,50,B,2,Raw
F,80,Danielle O'Shea,CIT,21,Juniors 20-24,76,,,,,,45,50,-52.5,,50,,,,,,50,B,3,Raw
F,80,Emma Kiely,BHAF,40,Masters 40-44,79.2,,,,,,47.5,50,-52.5,,50,,,,,,50,B,2,Raw
F,80,Aoife O'Keeffe,IRE,35,Open,79.3,,,,,,50,-55,-55,,50,,,,,,50,B,7,Raw
F,80,Siobhan Jacob,IRE,40,Masters 40-44,72.9,,,,,,40,47.5,-52.5,,47.5,,,,,,47.5,B,3,Raw
F,80,Liz Kilduff,Target,40,Masters 40-44,76.3,,,,,,45,-47.5,-47.5,,45,,,,,,45,B,4,Raw
F,80,Elaine Cockburn,Phoenix,44,Masters 40-44,70.4,,,,,,30,37.5,42.5,,42.5,,,,,,42.5,B,5,Raw
F,80,Rachel Godfrey,IRE,41,Masters 40-44,77.6,,,,,,35,42.5,-47.5,,42.5,,,,,,42.5,B,6,Raw
F,90,Olivia Lane,Galway,21,Juniors 20-24,88.7,,,,,,65,70,-75,,70,,,,,,70,B,1,Raw
F,90,Samantha Armstrong,DC,29,Open,84.8,,,,,,60,62.5,65,,65,,,,,,65,B,1,Raw
F,90,Sarah Grieve,IRE,40,Masters 40-44,85.9,,,,,,-55,55,-57.5,,55,,,,,,55,B,1,Raw
F,90,Grace Doran,IRE,25,Open,88.5,,,,,,52.5,55,-57.5,,55,,,,,,55,B,2,Raw
F,90,Christina Furlong,IRE,21,Juniors 20-24,89.3,,,,,,45,50,52.5,,52.5,,,,,,52.5,B,2,Raw
F,90,Nicole Craig #1,Cork,38,Open,89.4,,,,,,45,50,-60,,50,,,,,,50,B,3,Raw
F,90,Mairead McKnight,IRE,35,Open,84,,,,,,42.5,45,-47.5,,45,,,,,,45,B,4,Raw
F,90,Mary Nelson,D,43,Masters 40-44,83.6,,,,,,-35,,,,,,,,,,,B,DQ,Raw
F,90+,Paulina Coleman,Finn,37,Open,114.6,,,,,,70,75,80,,80,,,,,,80,B,1,Raw
F,90+,Sharon Conroy,IRE,29,Open,113,,,,,,70,75,-80,,75,,,,,,75,B,2,Raw
F,90+,Miranda Connolly,Rosco,42,Masters 40-44,110.6,,,,,,65,72.5,-77.5,,72.5,,,,,,72.5,B,1,Raw
F,90+,Arlette Bomahou,Dunnes,39,Open,110,,,,,,65,70,-72.5,,70,,,,,,70,B,3,Raw
F,90+,Ayshea Ullah,Ire,38,Open,100.1,,,,,,67.5,-70,-70,,67.5,,,,,,67.5,B,4,Raw
F,90+,Gemma Jethwa,IRE,29,Open,98.2,,,,,,55,60,62.5,,62.5,,,,,,62.5,B,5,Raw
M,60,Kris Boyce,D,30,Open,59.6,,,,,,110,-115,-115,,110,,,,,,110,B,1,Raw
M,60,Joey Leddy,D,18,Teen 18-19,58.2,,,,,,-57.5,57.5,60,,60,,,,,,60,B,1,Raw
M,56,Kevin Rocks,Belfast,35,Open,55.4,,,,,,70,77.5,80,,80,,,,,,80,B,1,Raw
M,56,Oscar Hancock,IRE,15,Teen 14-15,52.7,,,,,,57.5,60,65,,65,,,,,,65,B,1,Raw
M,67.5,Martin Enright,Own,26,Open,67.1,,,,,,-100,110,115,,115,,,,,,115,B,1,Raw
M,67.5,Reece Klewchuk,IRE,22,Juniors 20-24,67.4,,,,,,105,112.5,115,,115,,,,,,115,B,1,Raw
M,67.5,Jason Finan,SDSC,28,Open,66.9,,,,,,92.5,95,97.5,,97.5,,,,,,97.5,B,2,Raw
M,67.5,Barry O'Connell,IRE,18,Teen 18-19,66.2,,,,,,-90,95,-100,,95,,,,,,95,B,1,Raw
M,67.5,Daniel Holder,IRE,20,Juniors 20-24,66.7,,,,,,90,95,-100,,95,,,,,,95,B,2,Raw
M,67.5,Wayne O'Neill,IRE,25,Open,65.4,,,,,,-80,-90,90,,90,,,,,,90,B,3,Raw
M,67.5,Jimmy Fitzgerald,IRE,54,Masters 50-54,67.1,,,,,,77.5,82.5,87.5,,87.5,,,,,,87.5,B,1,Raw
M,67.5,Paul McLaren,Tipperary,41,Masters 40-44,66.9,,,,,,80,87.5,-92.5,,87.5,,,,,,87.5,B,1,Raw
M,67.5,Darren Moloney,IRE,18,Teen 18-19,66.1,,,,,,60,72.5,77.5,,77.5,,,,,,77.5,B,2,Raw
M,67.5,Niall Fitzgerald,IRE,16,Teen 16-17,65.5,,,,,,65,70,75,,75,,,,,,75,B,1,Raw
M,67.5,Paul Conlon #1,IRE,45,Masters 45-49,66.1,,,,,,-65,70,-75,,70,,,,,,70,B,1,Raw
M,75,Martin Maher,IRE,36,Open,70.6,,,,,,-130,-135,135,,135,,,,,,135,B,1,Raw
M,75,Kieran Murray,IRE,28,Open,72.1,,,,,,120,127.5,-132.5,,127.5,,,,,,127.5,B,2,Raw
M,75,Fergal Cox,IRE,36,Open,74.1,,,,,,120,125,-127.5,,125,,,,,,125,B,3,Raw
M,75,Mateusz Naumczyk,Kells,19,Teen 18-19,74.9,,,,,,110,120,125,-130,125,,,,,,125,B,1,Raw
M,75,Tommy McCormack,IRE,31,Open,73.6,,,,,,120,-125,-125,,120,,,,,,120,B,4,Raw
M,75,Michael Dubrovski,IRE,21,Juniors 20-24,73.9,,,,,,110,115,120,,120,,,,,,120,B,1,Raw
M,75,Richard Burke,Limerick,20,Juniors 20-24,71,,,,,,110,115,-120,,115,,,,,,115,B,2,Raw
M,75,Steven Gaughan,Westport,23,Juniors 20-24,69.9,,,,,,95,105,-110,,105,,,,,,105,B,3,Raw
M,75,Aidan Creamer,Ardee,25,Open,71.9,,,,,,95,-105,105,,105,,,,,,105,B,5,Raw
M,75,David Cummins,IRE,23,Juniors 20-24,74.8,,,,,,95,102.5,-107.5,,102.5,,,,,,102.5,B,4,Raw
M,75,Gary Collins,Angels,32,Open,70,,,,,,100,-105,-105,,100,,,,,,100,B,6,Raw
M,75,Conor O'Shea,IRE,20,Juniors 20-24,71.4,,,,,,-80,-90,100,,100,,,,,,100,B,5,Raw
M,75,Niall Beagan,IRE,20,Juniors 20-24,73.5,,,,,,-97.5,100,-107.5,,100,,,,,,100,B,6,Raw
M,75,Gary McGivern,UPC,32,Open,74,,,,,,-100,100,-110,,100,,,,,,100,B,7,Raw
M,75,Brian Ryan,IRE,20,Juniors 20-24,74.1,,,,,,95,100,-105,,100,,,,,,100,B,7,Raw
M,75,Darren Fehilly,Clommel Co,17,Teen 16-17,73.4,,,,,,90,95,-100,,95,,,,,,95,B,1,Raw
M,75,Michael Collins #8,Limerick,21,Juniors 20-24,73.8,,,,,,95,-102.5,-107.5,,95,,,,,,95,B,8,Raw
M,75,Eamonn Roch,Kilkenny,20,Juniors 20-24,73.8,,,,,,95,-102.5,-105,,95,,,,,,95,B,9,Raw
M,75,Joe O'Rourke,Miltown,39,Open,73.9,,,,,,90,95,-100,,95,,,,,,95,B,8,Raw
M,75,Ryan Ging,IRE,22,Juniors 20-24,73.3,,,,,,92.5,-97.5,-97.5,,92.5,,,,,,92.5,B,10,Raw
M,75,Ivan Smyth,Ballina,18,Teen 18-19,74.9,,,,,,87.5,-92.5,-92.5,,87.5,,,,,,87.5,B,2,Raw
M,75,Adam Loughrane,D,17,Teen 16-17,69.3,,,,,,82.5,-87.5,-87.5,,82.5,,,,,,82.5,B,2,Raw
M,75,Billy Mooney,IRE,55,Masters 55-59,73.4,,,,,,80,82.5,-85,,82.5,,,,,,82.5,B,1,Raw
M,75,Tim Locke,IRE,19,Teen 18-19,73.6,,,,,,75,-82.5,-82.5,,75,,,,,,75,B,3,Raw
M,75,Niall Keller,IRE,19,Teen 18-19,70,,,,,,55,60,-70,,60,,,,,,60,B,4,Raw
M,75,Gavin Fee,IRE,26,Open,73.1,,,,,,-85,-85,-85,,,,,,,,,B,DQ,Raw
M,75,Aaron Rossiter,IRE,16,Teen 16-17,69.5,,,,,,-40,-45,-55,,,,,,,,,B,DQ,Raw
M,82.5,Barry Mulcahy,Rasic,48,Masters 45-49,82.1,,,,,,130,-140,-140,,130,,,,,,130,B,1,Raw
M,82.5,Gareth Small,IRE,18,Teen 18-19,80.7,,,,,,122.5,127.5,-130,,127.5,,,,,,127.5,B,1,Raw
M,82.5,Ashwin Amersi,Abs,26,Open,80.1,,,,,,-120,125,-130,,125,,,,,,125,B,1,Raw
M,82.5,Sean Ross,IRE,22,Juniors 20-24,81.7,,,,,,-115,125,-132.5,,125,,,,,,125,B,1,Raw
M,82.5,Danny Howard,Ire,26,Open,82.4,,,,,,122.5,-127.5,-127.5,,122.5,,,,,,122.5,B,2,Raw
M,82.5,David Gagnon,CIT,21,Juniors 20-24,81.2,,,,,,110,120,-130,,120,,,,,,120,B,2,Raw
M,82.5,Jack O'Dwyer,IRE,19,Teen 18-19,82,,,,,,110,115,120,-121,120,,,,,,120,B,2,Raw
M,82.5,Michael Grace,IRE,23,Juniors 20-24,82.2,,,,,,-110,-115,120,,120,,,,,,120,B,3,Raw
M,82.5,Remo Minelli,Ire,46,Masters 45-49,81.5,,,,,,112.5,115,117.5,,117.5,,,,,,117.5,B,2,Raw
M,82.5,Peter Jennings,IRE,19,Teen 18-19,76.9,,,,,,-100,105,110,,110,,,,,,110,B,3,Raw
M,82.5,Dan Hurley,UCC,30,Open,81,,,,,,100,110,-112.5,,110,,,,,,110,B,3,Raw
M,82.5,Jamie Sullivan,UCC,21,Juniors 20-24,77,,,,,,97.5,102.5,107.5,,107.5,,,,,,107.5,B,4,Raw
M,82.5,Gearoid O'Donovan,IRE,18,Teen 18-19,80.8,,,,,,-100,107.5,-112.5,,107.5,,,,,,107.5,B,4,Raw
M,82.5,Denis Savage,UCC,20,Juniors 20-24,81,,,,,,100,107.5,-112.5,,107.5,,,,,,107.5,B,5,Raw
M,82.5,Michael Dunning,IRE,30,Open,81.6,,,,,,105,107.5,-110,,107.5,,,,,,107.5,B,4,Raw
M,82.5,Adam McCarthy,IRE,19,Teen 18-19,76.8,,,,,,97.5,105,-112.5,,105,,,,,,105,B,5,Raw
M,82.5,Barry Donoghue,Castleblayne,29,Open,82.3,,,,,,100,-105,105,,105,,,,,,105,B,5,Raw
M,82.5,Eugene Kaar,IRE,26,Open,80.6,,,,,,-100,100,-110,,100,,,,,,100,B,6,Raw
M,82.5,Leonard Clarke,Rasic,36,Open,77.9,,,,,,92.5,-97.5,97.5,,97.5,,,,,,97.5,B,7,Raw
M,82.5,Aaron Barker,UCC,23,Juniors 20-24,80.5,,,,,,90,95,97.5,,97.5,,,,,,97.5,B,6,Raw
M,82.5,Jack Ryan,IRE,21,Juniors 20-24,79.3,,,,,,-85,85,90,,90,,,,,,90,B,7,Raw
M,82.5,Sean Coughlan,N,23,Juniors 20-24,80.5,,,,,,90,-95,-95,,90,,,,,,90,B,8,Raw
M,82.5,John Devlin,IRE,32,Open,81.6,,,,,,-85,-85,90,,90,,,,,,90,B,8,Raw
M,82.5,Robert O'Conner,Worxs,17,Teen 16-17,77.4,,,,,,87.5,-90,-92.5,,87.5,,,,,,87.5,B,1,Raw
M,82.5,Simon Standbridge,IRE,21,Juniors 20-24,80.9,,,,,,82.5,87.5,-92.5,,87.5,,,,,,87.5,B,9,Raw
M,82.5,Matis Polis,D,16,Teen 16-17,76.9,,,,,,-80,85,-87.5,,85,,,,,,85,B,2,Raw
M,82.5,Daniel Davis,IRE,14,Teen 14-15,78.6,,,,,,65,70,-73,,70,,,,,,70,B,1,Raw
M,82.5,Alex Trimble,IRE,21,Juniors 20-24,80.1,,,,,,-135,-135,-135,,,,,,,,,B,DQ,Raw
M,90,Barry Pigott,Cork,23,Juniors 20-24,89.9,,,,,,175.5,185,-195,,185,,,,,,185,B,1,Raw
M,90,Saigid Mirzajev,SFX,29,Open,88.1,,,,,,175,-185.5,-185.5,,175,,,,,,175,B,1,Raw
M,90,Arthur Lynch,D,22,Juniors 20-24,89.9,,,,,,150,155,-157.5,,155,,,,,,155,B,2,Raw
M,90,Adam Trimble,IRE,19,Teen 18-19,87.3,,,,,,-140,145,-150,,145,,,,,,145,B,1,Raw
M,90,Justin Carroll,No,34,Open,88.4,,,,,,137.5,-142.5,-142.5,,137.5,,,,,,137.5,B,2,Raw
M,90,Larry Ryan,Ire,49,Masters 45-49,88,,,,,,125,135,-142.5,,135,,,,,,135,B,1,Raw
M,90,Peter Lucey,CIT,27,Open,84.5,,,,,,125,-132.5,132.5,,132.5,,,,,,132.5,B,3,Raw
M,90,Barry Browne,Wexford,41,Masters 40-44,85.5,,,,,,130,-135,-137.5,,130,,,,,,130,B,1,Raw
M,90,Damien O'Neill,Ire,28,Open,86.9,,,,,,-130,130,-135,,130,,,,,,130,B,4,Raw
M,90,Graham Norton,IRE,21,Juniors 20-24,87.8,,,,,,120,130,-135,,130,,,,,,130,B,3,Raw
M,90,Daniel O'Neill #1,Ire,33,Open,88.7,,,,,,115,130,-137.5,,130,,,,,,130,B,5,Raw
M,90,Thomas McCague,,35,Open,84.6,,,,,,125,-127.5,127.5,,127.5,,,,,,127.5,B,6,Raw
M,90,Christopher O'Conner,Ire,37,Open,85,,,,,,117.5,125,127.5,,127.5,,,,,,127.5,B,7,Raw
M,90,Clive Grehan,IRE,24,Open,86.9,,,,,,115,125,-130,,125,,,,,,125,B,8,Raw
M,90,Gavin Denihan,IRE,28,Open,88.9,,,,,,105,115,122.5,,122.5,,,,,,122.5,B,9,Raw
M,90,Louis Ryan,IRE,26,Open,82.8,,,,,,110,115,120,,120,,,,,,120,B,10,Raw
M,90,Eoghan O'Neill,IRE,21,Juniors 20-24,85.1,,,,,,120,-125,-125,,120,,,,,,120,B,4,Raw
M,90,Ciaran O' Sullivan,IRE,18,Teen 18-19,86.1,,,,,,120,-125,-125,,120,,,,,,120,B,2,Raw
M,90,Michael Seehan,D,21,Juniors 20-24,84.2,,,,,,110,115,-120,,115,,,,,,115,B,5,Raw
M,90,Eoghan Carroll,CIT,24,Open,87.9,,,,,,110,-115,115,,115,,,,,,115,B,11,Raw
M,90,Dave Cronin,IRE,28,Open,88.3,,,,,,100,-110,115,,115,,,,,,115,B,12,Raw
M,90,Mark Lacey,Dublin,48,Masters 45-49,89.1,,,,,,115,-120,-120,,115,,,,,,115,B,2,Raw
M,90,Andrew Wynne,IRE,31,Open,83.5,,,,,,110,-115,-115,,110,,,,,,110,B,13,Raw
M,90,Thomas Walsh,IRE,23,Juniors 20-24,84.5,,,,,,102.5,110,-115,,110,,,,,,110,B,6,Raw
M,90,Dylan Flanagan,IRE,22,Juniors 20-24,87.3,,,,,,110,-115,-115,,110,,,,,,110,B,7,Raw
M,90,Reg Byrne,Para,44,Masters 40-44,87.3,,,,,,100,-107.5,107.5,,107.5,,,,,,107.5,B,2,Raw
M,90,Killian Gamble,Carrigtwohill,17,Teen 16-17,88.4,,,,,,100,107.5,-112.5,,107.5,,,,,,107.5,B,1,Raw
M,90,PJ Kehoe,IRE,21,Juniors 20-24,84.4,,,,,,105,-112.5,-112.5,,105,,,,,,105,B,8,Raw
M,90,Noel McLoughlin,IRE,20,Juniors 20-24,85,,,,,,90,-100,105,,105,,,,,,105,B,9,Raw
M,90,Nick Lynch,Cork,17,Teen 16-17,85,,,,,,95,100,102.2,,102.2,,,,,,102.2,B,2,Raw
M,90,John Watson,Ire,43,Masters 40-44,89,,,,,,90,100,-105,,100,,,,,,100,B,3,Raw
M,90,William O'Dwyer,Limerick,19,Teen 18-19,88.7,,,,,,97.5,-105,-107.5,,97.5,,,,,,97.5,B,3,Raw
M,90,John McKenna,J,54,Masters 50-54,89.8,,,,,,95,97.5,-102.5,,97.5,,,,,,97.5,B,1,Raw
M,90,Keith Lucas,D,16,Teen 16-17,85,,,,,,90,95,-105,,95,,,,,,95,B,3,Raw
M,90,Jamie McGrath,Kilkenny,28,Open,88.8,,,,,,-95,95,-100,,95,,,,,,95,B,14,Raw
M,90,Andrew Doran,IRE,16,Teen 16-17,83.8,,,,,,90,-95,-95,,90,,,,,,90,B,4,Raw
M,90,Brian Maden,IRE,21,Juniors 20-24,86.5,,,,,,82.5,87.5,90,,90,,,,,,90,B,10,Raw
M,90,Csaba Rajk,IRE,38,Open,87.2,,,,,,90,-100,-100,,90,,,,,,90,B,15,Raw
M,90,Johnny White,D,30,Open,87.5,,,,,,85,-90,-92.5,,85,,,,,,85,B,16,Raw
M,90,Wesley Smyth,IRE,16,Teen 16-17,89,,,,,,-70,75,-82.5,,75,,,,,,75,B,5,Raw
M,90,Sean Cannife,Ire,67,Masters 65-69,85.4,,,,,,-35,35,-45,,35,,,,,,35,B,1,Raw
M,90,Conor Kilbane,IRE,18,Teen 18-19,88.4,,,,,,-110,-115,-115,,,,,,,,,B,DQ,Raw
M,100,Austin Hickey,D,34,Open,99.9,,,,,,180,,,,180,,,,,,180,B,1,Raw
M,100,Leonard O'Sullivan,IRE,19,Teen 18-19,97.8,,,,,,150,160.5,-170,,160.5,,,,,,160.5,B,1,Raw
M,100,Philip Salter,IRE,25,Open,96.6,,,,,,135,142.5,147.5,,147.5,,,,,,147.5,B,2,Raw
M,100,Gerard Murphy,Cork,37,Open,96,,,,,,140,-150,-150,,140,,,,,,140,B,3,Raw
M,100,Derrie Sutton,IRE,23,Juniors 20-24,99.3,,,,,,130,140,-145,,140,,,,,,140,B,1,Raw
M,100,David Day,Target,42,Masters 40-44,90.2,,,,,,125,132.5,137.5,,137.5,,,,,,137.5,B,1,Raw
M,100,Sean Purcell,IRE,24,Open,98.4,,,,,,130,135,-140,,135,,,,,,135,B,4,Raw
M,100,Ethan Preston,Ire,18,Teen 18-19,90.9,,,,,,125,130,-135,,130,,,,,,130,B,2,Raw
M,100,Joey Weatherill,IRE,21,Juniors 20-24,93.8,,,,,,130,-137.5,-137.5,,130,,,,,,130,B,2,Raw
M,100,Andrew Richardson,NIre,21,Juniors 20-24,96.1,,,,,,115,122.5,127.5,,127.5,,,,,,127.5,B,3,Raw
M,100,Anthony O'Halloran,IRE,49,Masters 45-49,97.6,,,,,,-120,127.5,-132.5,,127.5,,,,,,127.5,B,1,Raw
M,100,Gerry O'Sullivan,Carlow,57,Masters 55-59,97.3,,,,,,110,117.5,-120,,117.5,,,,,,117.5,B,1,Raw
M,100,John O'Neill,IRE,54,Masters 50-54,95.4,,,,,,110,115,-117.5,,115,,,,,,115,B,1,Raw
M,100,Aidan Kavanagh,IRE,39,Open,97.6,,,,,,90,100,110,,110,,,,,,110,B,5,Raw
M,100,Arthur Greene,Ire,17,Teen 16-17,91.7,,,,,,100,105,-112.5,,105,,,,,,105,B,1,Raw
M,100,Eoin Maguire,IRE,17,Teen 16-17,91.7,,,,,,100,105,-110,,105,,,,,,105,B,2,Raw
M,100,Jamie Farrel,IRE,30,Open,100,,,,,,95,102.5,-110,,102.5,,,,,,102.5,B,6,Raw
M,100,David Collins,IRE,18,Teen 18-19,93.3,,,,,,100,-105,-110,,100,,,,,,100,B,3,Raw
M,100,Ernest Tuff,IRE,76,Masters 75-79,97.2,,,,,,90,-100,-100,,90,,,,,,90,B,1,Raw
M,100,Stephen O'Sullivan,IRE,49,Masters 45-49,97.7,,,,,,90,-100,-100,,90,,,,,,90,B,2,Raw
M,100,Luke Daly-Ronayne,IRE,22,Juniors 20-24,94.5,,,,,,87.5,-95,-95,,87.5,,,,,,87.5,B,4,Raw
M,100,Joe Davis,IRE,43,Masters 40-44,98.8,,,,,,85,87.5,-90,,87.5,,,,,,87.5,B,2,Raw
M,100,Mike Kirby,IRE,19,Teen 18-19,99.7,,,,,,-102.5,-115,,,,,,,,,,B,DQ,Raw
M,110,Colin Power,IRE,32,Open,105.8,,,,,,155,160,165,,165,,,,,,165,B,1,Raw
M,110,John McMenamin,Ire,50,Masters 50-54,109.9,,,,,,140,147.5,151,,151,,,,,,151,B,1,Raw
M,110,Michael Coleman #2,Ire,39,Open,106.1,,,,,,145,150,-155,,150,,,,,,150,B,2,Raw
M,110,John O'Callaghan,IRE,36,Open,109.1,,,,,,130,140,145,,145,,,,,,145,B,3,Raw
M,110,Ryan Flanagan,Ire,24,Open,108.3,,,,,,132.5,140,-142.5,,140,,,,,,140,B,4,Raw
M,110,Barry O'Sullivan,Ire,31,Open,108.8,,,,,,140,-155,-155,,140,,,,,,140,B,5,Raw
M,110,Joe Norton,IRE,29,Open,109.2,,,,,,-130,135,140,,140,,,,,,140,B,6,Raw
M,110,Patrick Aherne,Ire,32,Open,107.2,,,,,,135,-145,-152.5,,135,,,,,,135,B,7,Raw
M,110,John West,Ire,72,Masters 70-74,105.5,,,,,,125,-132.5,-132.5,,125,,,,,,125,B,1,Raw
M,110,Paul Brennan,Naas,40,Masters 40-44,105.6,,,,,,110,117.5,122.5,,122.5,,,,,,122.5,B,1,Raw
M,110,Danny Foley,IRE,20,Juniors 20-24,105,,,,,,110,115,120,,120,,,,,,120,B,1,Raw
M,110,Patrick McNamara #3,Ire,58,Masters 55-59,109.8,,,,,,105,110,-115,,110,,,,,,110,B,1,Raw
M,110,Kieran Larkin,IRE,19,Teen 18-19,109.3,,,,,,100,105,-110,,105,,,,,,105,B,1,Raw
M,110,Conor Hession,D,17,Teen 16-17,107.9,,,,,,75,80,82.5,,82.5,,,,,,82.5,B,1,Raw
M,110,Harry Craig,IRE,15,Teen 14-15,105.1,,,,,,65,70,-80,,70,,,,,,70,B,1,Raw
M,110,MohammedIre Dafalla,,19,Teen 18-19,102.7,,,,,,-130,-130,-130,,,,,,,,,B,DQ,Raw
M,125,James Hickey,Ire,38,Open,121.4,,,,,,190,200,-205,,200,,,,,,200,B,1,Raw
M,125,Eoin O'Leary,Ire,22,Juniors 20-24,120.8,,,,,,145,152.5,-160,,152.5,,,,,,152.5,B,1,Raw
M,125,Michael Chisholm,No,44,Masters 40-44,115.4,,,,,,147.5,-150,150,,150,,,,,,150,B,1,Raw
M,125,Cillian Groom,IRE,18,Teen 18-19,113.6,,,,,,115,-122.5,130,,130,,,,,,130,B,1,Raw
M,125,Jason Fehily,IRE,16,Teen 16-17,122.1,,,,,,90,95,105,,105,,,,,,105,B,1,Raw
M,145,John O'Dwyer,Limerick,59,Masters 55-59,130.4,,,,,,160,-165,165,,165,,,,,,165,B,1,Raw
M,145,Andre Du Plessis,Ire,50,Masters 50-54,139.8,,,,,,150,160,,,160,,,,,,160,B,1,Raw
M,145,Micheal Downey,Ire,22,Juniors 20-24,131.7,,,,,,140,-150,,,140,,,,,,140,B,1,Raw
M,145,Christopher McBride,IRE,32,Open,144.5,,,,,,127.5,132.5,-140,,132.5,,,,,,132.5,B,1,Raw
M,145,Anthony Clarke,Gorey,32,Open,133.7,,,,,,105,115,-120,,115,,,,,,115,B,2,Raw
M,60,Barry Smith #1,IRE,27,Open,58.8,,,,,,100,107.5,-115,,107.5,,,,,,107.5,B,1,Single-ply
M,82.5,Jamie Sullivan,UCC,21,Juniors 20-24,77,,,,,,120,125,-130.5,,125,,,,,,125,B,1,Single-ply
M,82.5,Rob Duncan,Ace,32,Open,82.5,,,,,,115,125,-135,,125,,,,,,125,B,1,Single-ply
M,90,Roy Scott,IRE,52,Masters 50-54,88,,,,,,110,125,-140,,125,,,,,,125,B,1,Single-ply
M,110,Michael Coleman #2,Ire,39,Open,106.1,,,,,,-160,160,165,,165,,,,,,165,B,1,Single-ply
M,110,Barry O'Sullivan,Ire,31,Open,108.8,,,,,,-155,-165,165,,165,,,,,,165,B,2,Single-ply
M,145,Andre Du Plessis,Ire,50,Masters 50-54,139.8,,,,,,170,180,-190,,180,,,,,,180,B,1,Single-ply
F,47.5,Rej Makinano,IRE,19,Teen 18-19,46.4,,,,,,,,,,,-70,75,-80,,75,75,D,1,Raw
F,50.5,Hazel Hu,Abs,30,Open,50.3,,,,,,,,,,,130.5,-135,135,140,135,135,D,1,Raw
F,50.5,Anna Hourihane,ABS,21,Juniors 20-24,50,,,,,,,,,,,105,112.5,117.5,,117.5,117.5,D,1,Raw
F,50.5,Mairead Murphy,IRE,23,Juniors 20-24,50.2,,,,,,,,,,,110,115,-120,,115,115,D,2,Raw
F,50.5,Belen Reyes,Ire,25,Open,49.5,,,,,,,,,,,75,-85,-85,,75,75,D,2,Raw
F,53,Maggie Pomphrett,Target,33,Open,51.3,,,,,,,,,,,122.5,130,-132.5,,130,130,D,1,Raw
F,53,Sarah Flynn,IRE,41,Masters 40-44,52.2,,,,,,,,,,,115,120,125,,125,125,D,1,Raw
F,53,Orla O'Flaherty,IRE,28,Open,51.5,,,,,,,,,,,100,105,110,,110,110,D,2,Raw
F,53,Louise Capicotto,Lough,25,Open,52.9,,,,,,,,,,,95,102.5,-110,,102.5,102.5,D,3,Raw
F,53,Aisling Alexander,Gym,17,Teen 16-17,52.9,,,,,,,,,,,80,87.5,92.5,,92.5,92.5,D,1,Raw
F,53,Rosie Healy,IRE,19,Teen 18-19,52.7,,,,,,,,,,,70,75,80,,80,80,D,1,Raw
F,55.5,Carol Brennan,Ire,37,Open,55.1,,,,,,,,,,,125,-140,140,141,140,140,D,1,Raw
F,55.5,Maria McShane,Donegal,27,Open,55,,,,,,,,,,,120,127.5,132.5,140.5,132.5,132.5,D,2,Raw
F,55.5,Laura O'Riordan,CIT,23,Juniors 20-24,54.9,,,,,,,,,,,122.5,130,-135,,130,130,D,1,Raw
F,55.5,Rachel Sheridan,IRE,30,Open,54.9,,,,,,,,,,,127.5,-135,-135,,127.5,127.5,D,3,Raw
F,55.5,Amy Donoghue,Athlone,17,Teen 16-17,53.6,,,,,,,,,,,110,120,-130,,120,120,D,1,Raw
F,55.5,Katie Bland,IRE,24,Open,54.4,,,,,,,,,,,100,120,-130,,120,120,D,4,Raw
F,55.5,Julie Mullan,BHAF,45,Masters 45-49,54.9,,,,,,,,,,,110,115.5,117.5,120,117.5,117.5,D,1,Raw
F,55.5,Rachel Dunne,Target,38,Open,54.9,,,,,,,,,,,105,115,-120,,115,115,D,5,Raw
F,55.5,Geina McGrath,IRE,24,Open,55.4,,,,,,,,,,,100,115,-135,,115,115,D,6,Raw
F,55.5,Sara McAleese,Dublin,29,Open,55.5,,,,,,,,,,,95,100,107.5,,107.5,107.5,D,7,Raw
F,55.5,Aibhlin Clabby,Athlone,15,Teen 14-15,55.2,,,,,,,,,,,80,90,-100,,90,90,D,1,Raw
F,55.5,Rebecca Healy,IRE,46,Masters 45-49,53.7,,,,,,,,,,,60,67.5,75,,75,75,D,2,Raw
F,58.5,Emma Scott,Grunts,24,Open,57.6,,,,,,,,,,,140,150,155,,155,155,D,1,Raw
F,58.5,Louise McKenna,Monaghan,30,Open,56.5,,,,,,,,,,,127.5,135,140,,140,140,D,2,Raw
F,58.5,Mary Brennan,Castlecome,38,Open,57.8,,,,,,,,,,,125,135,-140,,135,135,D,3,Raw
F,58.5,Maria Greenan,IRE,26,Open,57.9,,,,,,,,,,,110,120,132.5,,132.5,132.5,D,4,Raw
F,58.5,Aoife Williams,IRE,23,Juniors 20-24,57.9,,,,,,,,,,,115,125,130,,130,130,D,1,Raw
F,58.5,Siobhan Cotter,Cork,23,Juniors 20-24,57.7,,,,,,,,,,,105,115,122.5,,122.5,122.5,D,2,Raw
F,58.5,Aimee O'Driscoll,UCC,22,Juniors 20-24,56.5,,,,,,,,,,,120,-127.5,-127.5,,120,120,D,3,Raw
F,58.5,LaVerne Crowley,IRE,24,Open,57.9,,,,,,,,,,,100,107.5,115,,115,115,D,5,Raw
F,58.5,Myra Fitzgerald,IRE,34,Open,57.4,,,,,,,,,,,100,105,-110,,105,105,D,6,Raw
F,63,Mickella Gill,IRE,16,Teen 16-17,63,,,,,,,,,,,115,125,130.5,,130.5,130.5,D,1,Raw
F,63,Jennifer O'Leary,IRE,21,Juniors 20-24,61.3,,,,,,,,,,,110,120,130,,130,130,D,1,Raw
F,63,Toni O'Driscoll,IRE,44,Masters 40-44,62.5,,,,,,,,,,,127.5,130,-135,,130,130,D,1,Raw
F,63,Deirde Langford,UCC,23,Juniors 20-24,60.3,,,,,,,,,,,115,120,125,,125,125,D,2,Raw
F,63,Fidelma Walsh,Target,38,Open,59.2,,,,,,,,,,,112.5,117.5,122.5,,122.5,122.5,D,1,Raw
F,63,Aisling Stapleton,IRE,23,Juniors 20-24,60.3,,,,,,,,,,,105,115,120,,120,120,D,3,Raw
F,63,Aoife Fennelly,IRE,23,Juniors 20-24,60.8,,,,,,,,,,,110,120,-127.5,,120,120,D,4,Raw
F,63,Clare Connolly,Abs,37,Open,60.7,,,,,,,,,,,105,110,115,,115,115,D,2,Raw
F,63,Karol Hynes,Target,35,Open,62.2,,,,,,,,,,,100,110,115,,115,115,D,3,Raw
F,63,Sarah Scallan,Dublin,29,Open,60.1,,,,,,,,,,,100,107.5,112.5,,112.5,112.5,D,4,Raw
F,63,Janice O'Neill,IRE,37,Open,60.9,,,,,,,,,,,80,90,100,,100,100,D,5,Raw
F,63,Clara Jenkinson,IRE,39,Open,61.2,,,,,,,,,,,90,95,100,,100,100,D,6,Raw
F,63,Aine Burke,Cork,20,Juniors 20-24,61.8,,,,,,,,,,,72.5,77.5,80,,80,80,D,5,Raw
F,63,Sharon O'Reilly,IRE,42,Masters 40-44,62.8,,,,,,,,,,,70,80,-90,,80,80,D,2,Raw
F,63,Ciara Byrne,D,28,Open,60.8,,,,,,,,,,,50,65,75,,75,75,D,7,Raw
F,70,Helen Twomey,IRE,47,Masters 45-49,69,,,,,,,,,,,145,152.5,160,165,160,160,D,1,Raw
F,70,Rose Ryan,IRE,40,Masters 40-44,69.3,,,,,,,,,,,150,155,160,,160,160,D,1,Raw
F,70,Assumpta Feeney,Target,38,Open,64.8,,,,,,,,,,,155,-160.5,-160.5,,155,155,D,1,Raw
F,70,Sylwia Majszyk,Kilbeggan,37,Open,67.8,,,,,,,,,,,-142.5,142.5,152.5,,152.5,152.5,D,2,Raw
F,70,Niamh Savage,IRE,36,Open,67.2,,,,,,,,,,,140,150,-155,,150,150,D,3,Raw
F,70,Clare Patterson,Manchester,30,Open,69,,,,,,,,,,,142.5,150,-155,,150,150,D,4,Raw
F,70,Aisling Ward,French,37,Open,64.5,,,,,,,,,,,145,-150,-150,,145,145,D,5,Raw
F,70,Karen Barry,Cork,48,Masters 45-49,67.9,,,,,,,,,,,130,140,-145,,140,140,D,2,Raw
F,70,Patricia O Halloran,IRE,19,Teen 18-19,69.5,,,,,,,,,,,100,120,140,140.5,140,140,D,1,Raw
F,70,Rebecca Ryan,IRE,15,Teen 14-15,69.6,,,,,,,,,,,100,120,135,,135,135,D,1,Raw
F,70,A-J Lawrence,TPFA,36,Open,68.2,,,,,,,,,,,110,125,132.5,,132.5,132.5,D,6,Raw
F,70,Claire Heneghan,IRE,23,Juniors 20-24,69.6,,,,,,,,,,,105,112.5,117.5,,117.5,117.5,D,1,Raw
F,70,Ursula O'Sullivan,Cork,23,Juniors 20-24,64.8,,,,,,,,,,,90,105,115,,115,115,D,2,Raw
F,70,Sarah Dunphy,IRE,29,Open,68.2,,,,,,,,,,,105,110,115,,115,115,D,7,Raw
F,70,Maura Ahern,Galway,28,Open,69.8,,,,,,,,,,,85,95,102.5,,102.5,102.5,D,8,Raw
F,70,Elaine Cockburn,Phoenix,44,Masters 40-44,69.9,,,,,,,,,,,90,95,102.5,,102.5,102.5,D,2,Raw
F,70,Carol McCarthy,D,41,Masters 40-44,69.8,,,,,,,,,,,90,100,-105,,100,100,D,3,Raw
F,70,Siobhan Stapleton,IRE,42,Masters 40-44,68.3,,,,,,,,,,,85,92.5,97.5,,97.5,97.5,D,4,Raw
F,70,Ana Kehoe,IRE,28,Open,66.1,,,,,,,,,,,85,-95,95,,95,95,D,9,Raw
F,70,Fionnuala Goggin,IRE,26,Open,65.9,,,,,,,,,,,-82.5,82.5,85,,85,85,D,10,Raw
F,80,Shannon Pollock,IRE,27,Open,76.6,,,,,,,,,,,150,162.5,-170,,162.5,162.5,D,1,Raw
F,80,Lisa Duffy,TPFA,35,Open,70.8,,,,,,,,,,,150,160,-170,,160,160,D,2,Raw
F,80,Danielle O'Sullivan,IRE,33,Open,74.5,,,,,,,,,,,145,157.5,-160,,157.5,157.5,D,3,Raw
F,80,Michelle Moran,Perform,32,Open,74.5,,,,,,,,,,,125,137.5,145,,145,145,D,4,Raw
F,80,Donna McDonough,Ire,45,Masters 45-49,78.8,,,,,,,,,,,140,145,-150,,145,145,D,1,Raw
F,80,Liz Flood,Carrickmaro,40,Masters 40-44,70.5,,,,,,,,,,,125,135,142.5,,142.5,142.5,D,1,Raw
F,80,Sinead Doherty,D,23,Juniors 20-24,70.5,,,,,,,,,,,120,130,140,,140,140,D,1,Raw
F,80,Sarah Doyle #2,Revolution,29,Open,80,,,,,,,,,,,130,137.5,140,,140,140,D,5,Raw
F,80,Linda Byrne,Pheonix,40,Masters 40-44,75.1,,,,,,,,,,,122.5,130,137.5,,137.5,137.5,D,2,Raw
F,80,Liz Kilduff,Target,40,Masters 40-44,76.5,,,,,,,,,,,120,130,-137.5,,130,130,D,3,Raw
F,80,Emma Kiely,BHAF,40,Masters 40-44,78.7,,,,,,,,,,,115,122.5,127.5,,127.5,127.5,D,4,Raw
F,80,Kasia Linde,D,31,Open,72,,,,,,,,,,,120,-125,125,,125,125,D,6,Raw
F,80,Danielle O'Shea,CIT,21,Juniors 20-24,76.3,,,,,,,,,,,117.5,125,-132.5,,125,125,D,2,Raw
F,80,Pearl Kennedy,IRE,23,Juniors 20-24,71.6,,,,,,,,,,,100,110,115,,115,115,D,3,Raw
F,80,Rachel Godfrey,IRE,41,Masters 40-44,78.5,,,,,,,,,,,95,105,110,,110,110,D,5,Raw
F,80,Siobhan Jacob,IRE,40,Masters 40-44,72.9,,,,,,,,,,,-130,-130,-130,,,,D,DQ,Raw
F,90,Olivia Lane,Galway,21,Juniors 20-24,89.5,,,,,,,,,,,165,170,175,,175,175,D,1,Raw
F,90,Aoife O'Leary,Cork,19,Teen 18-19,82.7,,,,,,,,,,,140,150,160,-165,160,160,D,1,Raw
F,90,Nicole Craig #1,Cork,38,Open,89.3,,,,,,,,,,,140,150,-160,,150,150,D,1,Raw
F,90,Sarah Grieve,IRE,40,Masters 40-44,86.6,,,,,,,,,,,120,125,132.5,,132.5,132.5,D,1,Raw
F,90,Samantha Armstrong,DC,29,Open,85,,,,,,,,,,,120,125,130,,130,130,D,2,Raw
M,90,Emer Higgins,IRE,31,Open,89.1,,,,,,,,,,,105,115,127.5,,127.5,127.5,D,16,Raw
F,90,Christina Furlong,IRE,21,Juniors 20-24,89.2,,,,,,,,,,,105,112.5,120,,120,120,D,2,Raw
F,90,Brid O'Sullivan,IRE,58,Masters 55-59,87,,,,,,,,,,,70,80,90,,90,90,D,1,Raw
F,90+,Ayshea Ullah,Ire,38,Open,100.5,,,,,,,,,,,192.5,200,-205,,200,200,D,1,Raw
F,90+,Arlette Bomahou,Dunnes,39,Open,110.1,,,,,,,,,,,160,170,177.5,,177.5,177.5,D,2,Raw
F,90+,Paulina Coleman,Finn,37,Open,115.2,,,,,,,,,,,155,162.5,-172.5,,162.5,162.5,D,3,Raw
F,90+,Gemma Jethwa,IRE,29,Open,99,,,,,,,,,,,140,145,150,,150,150,D,4,Raw
F,90+,Kathryn O Neill,IRE,23,Juniors 20-24,107.1,,,,,,,,,,,130,140,150,,150,150,D,1,Raw
F,90+,Laura McSweeney,Ire,20,Juniors 20-24,102.7,,,,,,,,,,,125,135,142.5,,142.5,142.5,D,2,Raw
M,56,Kevin Rocks,Belfast,35,Open,55.4,,,,,,,,,,,135,145,150,,150,150,D,1,Raw
M,56,Dean Dunphy,IRE,28,Open,54.8,,,,,,,,,,,-180,-180,,,,,D,DQ,Raw
M,60,Kris Boyce,D,30,Open,59.6,,,,,,,,,,,195,205,-210.5,,205,205,D,1,Raw
M,67.5,David Neary,Thy,27,Open,67.5,,,,,,,,,,,200,-210,215,-225.5,215,215,D,1,Raw
M,67.5,Paul McLaren,Tipperary,41,Masters 40-44,66.9,,,,,,,,,,,190,197.5,206,-207.5,206,206,D,1,Raw
M,67.5,Kelvin Moynihan,CIT,23,Juniors 20-24,66.7,,,,,,,,,,,190,200,-205,,200,200,D,1,Raw
M,67.5,Jason Finan,D,28,Open,66.8,,,,,,,,,,,185,,,,185,185,D,2,Raw
M,67.5,Darren Moloney,IRE,18,Teen 18-19,66.1,,,,,,,,,,,165,172.5,182.5,,182.5,182.5,D,1,Raw
M,67.5,Barry O'Connell,IRE,18,Teen 18-19,66.2,,,,,,,,,,,-175,175,-182.5,,175,175,D,2,Raw
M,67.5,Jamie Naughton,IRE,39,Open,65.9,,,,,,,,,,,152.5,-165,-165,,152.5,152.5,D,3,Raw
M,67.5,Daniel Stack,IRE,18,Teen 18-19,65.1,,,,,,,,,,,-140,-150,150,,150,150,D,3,Raw
M,67.5,Jimmy Fitzgerald,IRE,54,Masters 50-54,67.1,,,,,,,,,,,115,122.5,130,,130,130,D,1,Raw
M,75,Joe O'Rourke,Miltown,39,Open,73.9,,,,,,,,,,,230,250,262.5,,262.5,262.5,D,1,Raw
M,75,Tommy McCormack,IRE,31,Open,73.6,,,,,,,,,,,205,220,225,,225,225,D,2,Raw
M,75,Ivan Smyth,Ballina,18,Teen 18-19,74.9,,,,,,,,,,,200,212.5,220.5,-225,220.5,220.5,D,1,Raw
M,75,Matthew Henry #1,IRE,20,Juniors 20-24,74,,,,,,,,,,,200,210,220,,220,220,D,1,Raw
M,75,Mateusz Naumczyk,Kells,19,Teen 18-19,74.9,,,,,,,,,,,205,220,-230,,220,220,D,2,Raw
M,75,Brian Ryan,IRE,20,Juniors 20-24,74.1,,,,,,,,,,,190,202.5,212.5,,212.5,212.5,D,2,Raw
M,75,Craig Naughton,Ballina,16,Teen 16-17,74.2,,,,,,,,,,,190,202,207.5,211.5,207.5,207.5,D,1,Raw
M,75,Darren Fehilly,Clommel Co,17,Teen 16-17,73.4,,,,,,,,,,,180,195,203,211,203,203,D,2,Raw
M,75,John Donavan,CIT,23,Juniors 20-24,74.6,,,,,,,,,,,202.5,-210,-210,,202.5,202.5,D,3,Raw
M,75,Conor O'Shea,IRE,20,Juniors 20-24,71.4,,,,,,,,,,,170,185,200,,200,200,D,4,Raw
M,75,Garreth Lawrence,D,20,Juniors 20-24,71.8,,,,,,,,,,,175,190,200,,200,200,D,5,Raw
M,75,Niall Beagan,IRE,20,Juniors 20-24,73.5,,,,,,,,,,,180,190,200,,200,200,D,6,Raw
M,75,Michael Collins #8,Limerick,21,Juniors 20-24,73.8,,,,,,,,,,,185,192.5,200,,200,200,D,7,Raw
M,75,Gary McGivern,UPC,32,Open,74,,,,,,,,,,,180,190,200,,200,200,D,3,Raw
M,75,Gerry Cronnelly,Target,43,Masters 40-44,75,,,,,,,,,,,185,195.5,-200,,195.5,195.5,D,1,Raw
M,75,Eamonn Roch,Kilkenny,20,Juniors 20-24,73.8,,,,,,,,,,,190,195,-197.5,,195,195,D,8,Raw
M,75,David Cummins,IRE,23,Juniors 20-24,74.8,,,,,,,,,,,175,185,192.5,,192.5,192.5,D,9,Raw
M,75,Aidan Creamer,Ardee,25,Open,71.9,,,,,,,,,,,180,190,-200,,190,190,D,4,Raw
M,75,Steven Gaughan,Westport,23,Juniors 20-24,69.9,,,,,,,,,,,180,182.5,187.5,,187.5,187.5,D,10,Raw
M,75,Chris Kavanagh,Ace,22,Juniors 20-24,69.8,,,,,,,,,,,160,170,180,,180,180,D,11,Raw
M,75,Ryan Hardy,IRE,21,Juniors 20-24,74.1,,,,,,,,,,,180,-192.5,-192.5,,180,180,D,12,Raw
M,75,Gavin Fee,IRE,26,Open,73.1,,,,,,,,,,,-165,165,170,,170,170,D,5,Raw
M,75,Adam Loughrane,D,17,Teen 16-17,69.3,,,,,,,,,,,140,155,160,,160,160,D,3,Raw
M,75,Ryan Ging,IRE,22,Juniors 20-24,73.3,,,,,,,,,,,160,-167.5,-167.5,,160,160,D,13,Raw
M,75,Chris O'Mahony,IRE,32,Open,74.7,,,,,,,,,,,-160,160,-180,,160,160,D,6,Raw
M,75,Tim Locke,IRE,19,Teen 18-19,73.6,,,,,,,,,,,145,155,-165,,155,155,D,3,Raw
M,75,James Kiely,IRE,21,Juniors 20-24,75,,,,,,,,,,,-120,-120,125,,125,125,D,14,Raw
M,75,Aaron Rossiter,IRE,16,Teen 16-17,69.5,,,,,,,,,,,120,-130,-135,,120,120,D,4,Raw
M,75,Niall Keller,IRE,19,Teen 18-19,70,,,,,,,,,,,120,-140,-140,,120,120,D,4,Raw
M,82.5,John Ryan #4,Kilkenny,41,Masters 40-44,81,,,,,,,,,,,245,255,260,,260,260,D,1,Raw
M,82.5,David Gagnon,CIT,21,Juniors 20-24,81.2,,,,,,,,,,,215,240,-250,,240,240,D,1,Raw
M,82.5,Dan Hurley,UCC,30,Open,81,,,,,,,,,,,220,232.5,-240,,232.5,232.5,D,1,Raw
M,82.5,Gavin Meenan,IRE,30,Open,76.4,,,,,,,,,,,210,220,230,,230,230,D,2,Raw
M,82.5,Alex Trimble,IRE,21,Juniors 20-24,80.1,,,,,,,,,,,230,-235,-235,,230,230,D,2,Raw
M,82.5,Barry Donoghue,Castleblayn,29,Open,82.3,,,,,,,,,,,215,222.5,230,,230,230,D,3,Raw
M,82.5,Gareth Small,IRE,18,Teen 18-19,80.7,,,,,,,,,,,215,220,225,,225,225,D,1,Raw
M,82.5,Barry Mulcahy,Rasic,48,Masters 45-49,82.1,,,,,,,,,,,210,225,,,225,225,D,1,Raw
M,82.5,Ashwin Amersi,Abs,26,Open,80.1,,,,,,,,,,,220,-230,-230,,220,220,D,4,Raw
M,82.5,Pierre Ponchon,IRE,21,Juniors 20-24,81.6,,,,,,,,,,,195,210,220,,220,220,D,3,Raw
M,82.5,Jack Ryan,IRE,21,Juniors 20-24,79.3,,,,,,,,,,,195,210,215,,215,215,D,4,Raw
M,82.5,Michael Grace,IRE,23,Juniors 20-24,82.2,,,,,,,,,,,215,-232.5,-232.5,,215,215,D,5,Raw
M,82.5,Danny Howard,Ire,26,Open,82.4,,,,,,,,,,,200,-210,215,,215,215,D,5,Raw
M,82.5,Adam McCarthy,IRE,19,Teen 18-19,76.8,,,,,,,,,,,180,200,210,,210,210,D,2,Raw
M,82.5,Denis Savage,UCC,20,Juniors 20-24,81,,,,,,,,,,,200,210,-220,,210,210,D,6,Raw
M,82.5,Leonard Clarke,Rasic,36,Open,77.9,,,,,,,,,,,205,-215,-215,,205,205,D,6,Raw
M,82.5,Peter Jennings,IRE,19,Teen 18-19,76.9,,,,,,,,,,,180,190,202.5,,202.5,202.5,D,3,Raw
M,82.5,Eoin Bourke,Ballina,21,Juniors 20-24,81.6,,,,,,,,,,,202.5,-212.5,-212.5,,202.5,202.5,D,7,Raw
M,82.5,Jack O'Dwyer,IRE,19,Teen 18-19,82,,,,,,,,,,,180,192.5,202.5,,202.5,202.5,D,4,Raw
M,82.5,Gearoid O'Donovan,IRE,18,Teen 18-19,80.8,,,,,,,,,,,-175,185,200,,200,200,D,5,Raw
M,82.5,Eoin Jeffries,Ire,22,Juniors 20-24,81.2,,,,,,,,,,,175,190,200,,200,200,D,8,Raw
M,82.5,Michael Dunning,IRE,30,Open,81.6,,,,,,,,,,,190,-200,-200,,190,190,D,7,Raw
M,82.5,Robert O'Conner,Worxs,17,Teen 16-17,77.4,,,,,,,,,,,170,185,-190,,185,185,D,1,Raw
M,82.5,Simon Standbridge,IRE,21,Juniors 20-24,80.9,,,,,,,,,,,175,185,-200,,185,185,D,9,Raw
M,82.5,John Devlin,IRE,32,Open,81.6,,,,,,,,,,,170,180,185,,185,185,D,8,Raw
M,82.5,Felix McAlinden,DefGym,45,Masters 45-49,77.3,,,,,,,,,,,172.5,180,-182.5,,180,180,D,2,Raw
M,82.5,Aaron Barker,UCC,23,Juniors 20-24,80.5,,,,,,,,,,,160,175,180,,180,180,D,10,Raw
M,82.5,Sean Coughlan,N,23,Juniors 20-24,80.5,,,,,,,,,,,140,160,180,,180,180,D,11,Raw
M,82.5,David Griffin,CIT,21,Juniors 20-24,82.3,,,,,,,,,,,140,150,165,,165,165,D,12,Raw
M,82.5,Matis Polis,D,16,Teen 16-17,76.9,,,,,,,,,,,150,-160,-170,,150,150,D,2,Raw
M,82.5,Michael Murphy,IRE,15,Teen 14-15,81.9,,,,,,,,,,,110,120,130,,130,130,D,1,Raw
M,82.5,Eugene Kaar,IRE,26,Open,80.6,,,,,,,,,,,-190,-190,-190,,,,D,DQ,Raw
M,90,Barry Pigott,Cork,23,Juniors 20-24,89.9,,,,,,,,,,,260,275,285,-300.5,285,285,D,1,Raw
M,90,Arthur Lynch,D,22,Juniors 20-24,89.9,,,,,,,,,,,260,275,-285,,275,275,D,2,Raw
M,90,Eoghan Carroll,CIT,24,Open,87.9,,,,,,,,,,,235,245,250,,250,250,D,1,Raw
M,90,David Nolan,IRE,33,Open,89.9,,,,,,,,,,,225,237.5,245,,245,245,D,2,Raw
M,90,Saigid Mirzajev,SFX,29,Open,88.1,,,,,,,,,,,220,230,240,,240,240,D,3,Raw
M,90,Derek Daly,D,37,Open,88.7,,,,,,,,,,,220,230,240,,240,240,D,4,Raw
M,90,Graham Norton,IRE,21,Juniors 20-24,87.8,,,,,,,,,,,220,232.5,237.5,,237.5,237.5,D,3,Raw
M,90,Eoghan O'Neill,IRE,21,Juniors 20-24,85.1,,,,,,,,,,,220,227.5,235,,235,235,D,4,Raw
M,90,Gavin Denihan,IRE,28,Open,88.9,,,,,,,,,,,210,220,232.5,,232.5,232.5,D,5,Raw
M,90,Andrew Wynne,IRE,31,Open,83.5,,,,,,,,,,,210,220,230,,230,230,D,6,Raw
M,90,Peter Lucey,CIT,27,Open,84.5,,,,,,,,,,,210,227.5,-232.5,,227.5,227.5,D,7,Raw
M,90,Adam Trimble,IRE,19,Teen 18-19,87.3,,,,,,,,,,,210,220,227.5,,227.5,227.5,D,1,Raw
M,90,Daniel O'Neill #1,Ire,33,Open,88.7,,,,,,,,,,,197.5,220,225,,225,225,D,8,Raw
M,90,Paul Shields,IRE,29,Open,89.5,,,,,,,,,,,205,215,225,,225,225,D,9,Raw
M,90,Clive Brehan,Ire,24,Open,86.9,,,,,,,,,,,190,210,220,,220,220,D,10,Raw
M,90,Jamie McGrath,Kilkenny,28,Open,88.8,,,,,,,,,,,205,215,220,,220,220,D,11,Raw
M,90,Keith Lucas,D,16,Teen 16-17,85,,,,,,,,,,,185,200,210,,210,210,D,1,Raw
M,90,Larry Ryan,Ire,49,Masters 45-49,88,,,,,,,,,,,180,190,205,,205,205,D,1,Raw
M,90,Conor Kilbane,IRE,18,Teen 18-19,88.4,,,,,,,,,,,190,205,-215,,205,205,D,2,Raw
M,90,Brian Maden,IRE,21,Juniors 20-24,86.5,,,,,,,,,,,185,195,202.5,,202.5,202.5,D,5,Raw
M,90,Thomas Walsh,IRE,23,Juniors 20-24,84.5,,,,,,,,,,,180,192.5,200,,200,200,D,6,Raw
M,90,Noel McLoughlin,IRE,20,Juniors 20-24,85,,,,,,,,,,,180,200,-210,,200,200,D,7,Raw
M,90,Nick Lynch,Cork,17,Teen 16-17,85,,,,,,,,,,,185,195,-210,,195,195,D,2,Raw
M,90,Ciaran O' Sullivan,IRE,18,Teen 18-19,86.1,,,,,,,,,,,190,195,-200,,195,195,D,3,Raw
M,90,John McKenna,J,54,Masters 50-54,89.8,,,,,,,,,,,185,195,-205,,195,195,D,1,Raw
M,90,Andrew Doran,IRE,16,Teen 16-17,83.8,,,,,,,,,,,170,180,190,,190,190,D,3,Raw
M,90,Barry Browne,Wexford,41,Masters 40-44,85.5,,,,,,,,,,,170,180,190,,190,190,D,1,Raw
M,90,Redmond O'Sullivan,IRE,21,Juniors 20-24,86.1,,,,,,,,,,,165,180,190,,190,190,D,8,Raw
M,90,Csaba Rajk,IRE,38,Open,87.2,,,,,,,,,,,180,190,-195,,190,190,D,12,Raw
M,90,Killian Gamble,Carrigtwohil,17,Teen 16-17,88.4,,,,,,,,,,,180,-190,190,,190,190,D,4,Raw
M,90,Louis Ryan,IRE,26,Open,82.8,,,,,,,,,,,160,170,180,,180,180,D,13,Raw
M,90,Johnny White,D,30,Open,87.5,,,,,,,,,,,155,160,165,,165,165,D,14,Raw
M,90,John Watson,Ire,44,Masters 40-44,89,,,,,,,,,,,165,-185,-185,,165,165,D,2,Raw
M,90,Sean Cannife,Ire,67,Masters 65-69,85.4,,,,,,,,,,,150,-155,-155,,150,150,D,1,Raw
M,90,Dave Cronin,IRE,28,Open,88.3,,,,,,,,,,,130,150,-170,,150,150,D,15,Raw
M,90,Wesley Smyth,IRE,16,Teen 16-17,89,,,,,,,,,,,120,130,140,,140,140,D,5,Raw
M,100,Andy Murtagh,London,48,Masters 45-49,91.2,,,,,,,,,,,280,-287.5,293,,293,293,D,1,Raw
M,100,Kenneth Nwaezeigwe,Ire,21,Juniors 20-24,91.2,,,,,,,,,,,245,260,275,-285.5,275,275,D,1,Raw
M,100,Andrew Richardson,NIre,21,Juniors 20-24,96.1,,,,,,,,,,,230,265,275,-285.5,275,275,D,2,Raw
M,100,Declan Counihan,IRE,51,Masters 50-54,98.7,,,,,,,,,,,230,250,260,,260,260,D,1,Raw
M,100,Philip Salter,IRE,25,Open,96.6,,,,,,,,,,,230,252.5,-255,,252.5,252.5,D,1,Raw
M,100,Peter Manley,IRE,28,Open,98.1,,,,,,,,,,,230,240,250,,250,250,D,2,Raw
M,100,Joey Weatherill,IRE,21,Juniors 20-24,93.8,,,,,,,,,,,225,235,-240,,235,235,D,3,Raw
M,100,Sean Purcell,IRE,24,Open,98.4,,,,,,,,,,,200,220,235,,235,235,D,3,Raw
M,100,Leonard O'Sullivan,IRE,19,Teen 18-19,97.8,,,,,,,,,,,215,230,231,,231,231,D,1,Raw
M,100,James Higgins,Cork,28,Open,98.5,,,,,,,,,,,220,230,-240,,230,230,D,4,Raw
M,100,Ethan Preston,Ire,18,Teen 18-19,90.9,,,,,,,,,,,210,220,227.5,231.5,227.5,227.5,D,2,Raw
M,100,Gerard Murphy,Cork,37,Open,96,,,,,,,,,,,200,220,-230,,220,220,D,5,Raw
M,100,Anthony O'Halloran,IRE,49,Masters 45-49,97.6,,,,,,,,,,,-210,220,-225,,220,220,D,2,Raw
M,100,Mike Kirby,IRE,19,Teen 18-19,99.7,,,,,,,,,,,190,205,215,,215,215,D,3,Raw
M,100,Jamie Farrel,IRE,30,Open,100,,,,,,,,,,,197.5,207.5,215,,215,215,D,6,Raw
M,100,Motaz Abdou,Ire,26,Open,93,,,,,,,,,,,-200,200,210,,210,210,D,7,Raw
M,100,Ernest Tuff,IRE,76,Masters 75-79,97.2,,,,,,,,,,,-210,210,-215,,210,210,D,1,Raw
M,100,Gerry O'Sullivan,Carlow,57,Masters 55-59,97.3,,,,,,,,,,,195,205,210,,210,210,D,1,Raw
M,100,Arthur Greene,IRE,17,Teen 16-17,91.7,,,,,,,,,,,190,200,207.5,-223,207.5,207.5,D,1,Raw
M,100,Gavin O'Neill,Ire,18,Teen 18-19,92.9,,,,,,,,,,,195,205,-217.5,,205,205,D,4,Raw
M,100,John O'Neill,IRE,54,Masters 50-54,95.4,,,,,,,,,,,195,200,-210,,200,200,D,2,Raw
M,100,Aidan Kavanagh,IRE,39,Open,97.6,,,,,,,,,,,180,200,-205,,200,200,D,8,Raw
M,100,Eoin Maguire,IRE,18,Teen 18-19,91.7,,,,,,,,,,,180,185,190,,190,190,D,5,Raw
M,100,David Collins,IRE,18,Teen 18-19,93.3,,,,,,,,,,,190,-215,-215,,190,190,D,6,Raw
M,100,Luke Daly-Ronayne,IRE,22,Juniors 20-24,94.5,,,,,,,,,,,155,165,180,,180,180,D,4,Raw
M,100,Stephen O'Sullivan,IRE,49,Masters 45-49,97.7,,,,,,,,,,,150,-160,-165,,150,150,D,3,Raw
M,100,Derrie Sutton,IRE,23,Juniors 20-24,99.3,,,,,,,,,,,-220,-220,,,,,D,DQ,Raw
M,110,Barry Healy,Ire,33,Open,109,,,,,,,,,,,290,300,,,300,300,D,1,Raw
M,110,Paul Brennan,Naas,40,Masters 40-44,105.6,,,,,,,,,,,250,267.5,277.5,280,277.5,277.5,D,1,Raw
M,110,Colin Power,IRE,32,Open,105.8,,,,,,,,,,,240,250,255,,255,255,D,2,Raw
M,110,Mohammed Dafalla,Ire,19,Teen 18-19,102.7,,,,,,,,,,,232.5,245,-250,,245,245,D,1,Raw
M,110,Kieran Larkin,IRE,19,Teen 18-19,109.3,,,,,,,,,,,225,232.5,242.5,,242.5,242.5,D,2,Raw
M,110,John O'Callaghan,IRE,36,Open,109.1,,,,,,,,,,,220,230,240,,240,240,D,3,Raw
M,110,Patrick McNamara #3,Ire,58,Masters 55-59,109.8,,,,,,,,,,,210,225,240,,240,240,D,1,Raw
M,110,Ross O'Connor,D,19,Teen 18-19,109.9,,,,,,,,,,,200,220,235,,235,235,D,3,Raw
M,110,David Conlan,BHAF,32,Open,105.2,,,,,,,,,,,187.5,200,220,,220,220,D,4,Raw
M,110,Joe Norton,IRE,29,Open,109.2,,,,,,,,,,,190,205,215,,215,215,D,5,Raw
M,110,Danny Foley,IRE,20,Juniors 20-24,105,,,,,,,,,,,190,200,210,,210,210,D,1,Raw
M,110,John West,Ire,72,Masters 70-74,105.5,,,,,,,,,,,190,210,-233.5,,210,210,D,1,Raw
M,110,Conor Hession,D,17,Teen 16-17,107.9,,,,,,,,,,,200,210,-226.5,,210,210,D,1,Raw
M,110,Barry O'Sullivan,Ire,31,Open,108.8,,,,,,,,,,,170,180,190,,190,190,D,6,Raw
M,110,Harry Craig,IRE,15,Teen 14-15,105.1,,,,,,,,,,,135,145,152.5,,152.5,152.5,D,1,Raw
M,125,James Hickey,Ire,38,Open,121.4,,,,,,,,,,,335,-355,-355,,335,335,D,1,Raw
M,125,Eoin O'Leary,Ire,22,Juniors 20-24,120.8,,,,,,,,,,,245,260,-275,,260,260,D,1,Raw
M,125,Cillian Groom,IRE,18,Teen 18-19,113.6,,,,,,,,,,,220,230,240,,240,240,D,1,Raw
M,125,Jason Fehily,IRE,16,Teen 16-17,122.1,,,,,,,,,,,170,180,185,,185,185,D,1,Raw
M,145,Andre Du Plessis,Ire,50,Masters 50-54,139.8,,,,,,,,,,,250,261,275,,275,275,D,1,Raw
M,145,Sean Cuddy,IRE,29,Open,140.2,,,,,,,,,,,240,250,260,,260,260,D,1,Raw
M,145,Micheal Downey,Ire,22,Juniors 20-24,131.7,,,,,,,,,,,-250,-250,250,,250,250,D,1,Raw
M,145,Jonah Faulkner,ire,19,Teen 18-19,134,,,,,,,,,,,215,225,235,-242.5,235,235,D,1,Raw
M,145,Christopher McBride,IRE,32,Open,144.5,,,,,,,,,,,195,215,-240,,215,215,D,2,Raw
M,145,Anthony Clarke,Gorey,32,Open,133.7,,,,,,,,,,,180,-200,200,,200,200,D,3,Raw
M,60,Barry Smith #1,IRE,28,Open,58.8,,,,,,,,,,,185,200.5,-202.5,,200.5,200.5,D,1,Single-ply
M,67.5,Kelvin Moynihan,CIT,23,Juniors 20-24,66.7,,,,,,,,,,,192.5,200,205,-207.5,205,205,D,1,Single-ply
M,67.5,Paul Conlon #1,IRE,45,Masters 45-49,66.1,,,,,,,,,,,110,,,,110,110,D,1,Single-ply
M,82.5,Rob Duncan,Ace,32,Open,82.5,,,,,,,,,,,210,222.5,-232.5,,222.5,222.5,D,1,Single-ply
M,90,Derek Daly,D,37,Open,88.7,,,,,,,,,,,225,235,245,,245,245,D,1,Single-ply
M,90,David Moore #13,Ire,28,Open,86.1,,,,,,,,,,,210,225,235,,235,235,D,2,Single-ply
M,100,David Day,Fitness,42,Masters 40-44,90.2,,,,,,,,,,,190,200,210,,210,210,D,1,Single-ply
M,110,Barry Healy,Ire,33,Open,109,,,,,,,,,,,300,317.5,,,317.5,317.5,D,1,Single-ply
M,125,James Hickey,Ire,38,Open,121.4,,,,,,,,,,,335,,,,335,335,D,1,Single-ply
M,145,Andre Du Plessis,Ire,50,Masters 50-54,139.8,,,,,,,,,,,250,263.5,270,,270,270,D,1,Single-ply
